,Reg,Anno,% fumatori
0,TOS,2001,24.9
1,TOS,2002,23.1
2,TOS,2003,23.2
3,TOS,2005,22.1
4,TOS,2006,22.6
5,TOS,2007,22.6
6,TOS,2008,22.3
7,TOS,2009,24.1
8,TOS,2010,22.6
9,TOS,2011,22.9
10,TOS,2012,23.4
11,TOS,2013,22.3
12,TOS,2014,17.6
13,TOS,2015,20.3
14,TOS,2016,20.3
15,TOS,2017,20.6
16,TOS,2018,20.0
17,TOS,2019,19.7
18,UMB,2001,22.4
19,UMB,2002,22.9
20,UMB,2003,21.8
21,UMB,2005,24.5
22,UMB,2006,22.9
23,UMB,2007,22.6
24,UMB,2008,21.2
25,UMB,2009,24.6
26,UMB,2010,23.4
27,UMB,2011,21.2
28,UMB,2012,20.1
29,UMB,2013,22.7
30,UMB,2014,21.2
31,UMB,2015,21.3
32,UMB,2016,22.8
33,UMB,2017,22.3
34,UMB,2018,20.5
35,UMB,2019,21.7
36,SIC,2001,23.8
37,SIC,2002,23.1
38,SIC,2003,23.0
39,SIC,2005,22.1
40,SIC,2006,25.5
41,SIC,2007,22.5
42,SIC,2008,22.8
43,SIC,2009,23.6
44,SIC,2010,22.7
45,SIC,2011,22.7
46,SIC,2012,24.6
47,SIC,2013,22.1
48,SIC,2014,19.8
49,SIC,2015,19.7
50,SIC,2016,19.6
51,SIC,2017,20.4
52,SIC,2018,18.9
53,SIC,2019,19.2
54,EMR,2001,25.8
55,EMR,2002,26.6
56,EMR,2003,25.7
57,EMR,2005,22.3
58,EMR,2006,23.9
59,EMR,2007,21.7
60,EMR,2008,23.2
61,EMR,2009,24.6
62,EMR,2010,22.3
63,EMR,2011,21.2
64,EMR,2012,20.6
65,EMR,2013,20.6
66,EMR,2014,19.7
67,EMR,2015,20.4
68,EMR,2016,20.3
69,EMR,2017,19.6
70,EMR,2018,17.5
71,EMR,2019,17.7
72,CAL,2001,20.0
73,CAL,2002,18.7
74,CAL,2003,19.1
75,CAL,2005,19.0
76,CAL,2006,18.7
77,CAL,2007,17.0
78,CAL,2008,20.6
79,CAL,2009,20.4
80,CAL,2010,20.5
81,CAL,2011,18.8
82,CAL,2012,19.1
83,CAL,2013,18.2
84,CAL,2014,16.2
85,CAL,2015,17.6
86,CAL,2016,15.9
87,CAL,2017,16.4
88,CAL,2018,16.2
89,CAL,2019,15.4
90,SAR,2001,22.8
91,SAR,2002,23.2
92,SAR,2003,24.7
93,SAR,2005,22.2
94,SAR,2006,21.6
95,SAR,2007,21.2
96,SAR,2008,21.3
97,SAR,2009,23.3
98,SAR,2010,21.3
99,SAR,2011,19.3
100,SAR,2012,19.1
101,SAR,2013,21.0
102,SAR,2014,20.2
103,SAR,2015,20.4
104,SAR,2016,17.7
105,SAR,2017,17.8
106,SAR,2018,19.1
107,SAR,2019,19.2
108,LIG,2001,23.0
109,LIG,2002,23.1
110,LIG,2003,22.3
111,LIG,2005,20.6
112,LIG,2006,19.5
113,LIG,2007,23.2
114,LIG,2008,20.2
115,LIG,2009,22.8
116,LIG,2010,20.8
117,LIG,2011,20.9
118,LIG,2012,21.3
119,LIG,2013,19.5
120,LIG,2014,17.8
121,LIG,2015,21.4
122,LIG,2016,20.7
123,LIG,2017,21.5
124,LIG,2018,18.9
125,LIG,2019,18.6
126,BAS,2001,19.4
127,BAS,2002,21.3
128,BAS,2003,21.8
129,BAS,2005,19.6
130,BAS,2006,21.8
131,BAS,2007,23.2
132,BAS,2008,22.8
133,BAS,2009,23.2
134,BAS,2010,21.3
135,BAS,2011,23.8
136,BAS,2012,21.5
137,BAS,2013,18.6
138,BAS,2014,18.8
139,BAS,2015,18.3
140,BAS,2016,21.5
141,BAS,2017,19.5
142,BAS,2018,19.1
143,BAS,2019,17.8
144,PIE,2001,20.5
145,PIE,2002,23.7
146,PIE,2003,23.8
147,PIE,2005,20.9
148,PIE,2006,22.2
149,PIE,2007,22.3
150,PIE,2008,21.4
151,PIE,2009,22.9
152,PIE,2010,22.4
153,PIE,2011,22.9
154,PIE,2012,21.3
155,PIE,2013,20.8
156,PIE,2014,20.0
157,PIE,2015,20.0
158,PIE,2016,20.0
159,PIE,2017,20.7
160,PIE,2018,20.2
161,PIE,2019,19.7
162,ABR,2001,19.6
163,ABR,2002,21.6
164,ABR,2003,22.6
165,ABR,2005,23.4
166,ABR,2006,20.7
167,ABR,2007,20.9
168,ABR,2008,23.2
169,ABR,2009,21.8
170,ABR,2010,21.8
171,ABR,2011,23.8
172,ABR,2012,23.2
173,ABR,2013,21.4
174,ABR,2014,20.5
175,ABR,2015,20.5
176,ABR,2016,19.7
177,ABR,2017,19.7
178,ABR,2018,19.1
179,ABR,2019,16.8
180,VDA,2001,22.4
181,VDA,2002,22.7
182,VDA,2003,20.9
183,VDA,2005,19.9
184,VDA,2006,19.4
185,VDA,2007,19.7
186,VDA,2008,17.5
187,VDA,2009,18.9
188,VDA,2010,19.8
189,VDA,2011,16.3
190,VDA,2012,15.6
191,VDA,2013,18.5
192,VDA,2014,18.0
193,VDA,2015,18.6
194,VDA,2016,19.8
195,VDA,2017,19.3
196,VDA,2018,18.7
197,VDA,2019,18.3
198,MOL,2001,22.7
199,MOL,2002,21.3
200,MOL,2003,20.8
201,MOL,2005,20.2
202,MOL,2006,19.1
203,MOL,2007,20.5
204,MOL,2008,20.5
205,MOL,2009,20.3
206,MOL,2010,21.0
207,MOL,2011,21.6
208,MOL,2012,21.0
209,MOL,2013,19.0
210,MOL,2014,17.8
211,MOL,2015,21.1
212,MOL,2016,20.0
213,MOL,2017,20.1
214,MOL,2018,17.0
215,MOL,2019,19.5
216,CAM,2001,25.9
217,CAM,2002,24.7
218,CAM,2003,26.2
219,CAM,2005,25.2
220,CAM,2006,26.9
221,CAM,2007,26.2
222,CAM,2008,23.8
223,CAM,2009,22.8
224,CAM,2010,26.1
225,CAM,2011,23.0
226,CAM,2012,24.6
227,CAM,2013,22.9
228,CAM,2014,22.2
229,CAM,2015,22.2
230,CAM,2016,23.4
231,CAM,2017,21.1
232,CAM,2018,18.7
233,CAM,2019,19.5
234,MAR,2001,23.4
235,MAR,2002,22.5
236,MAR,2003,23.0
237,MAR,2005,20.5
238,MAR,2006,20.9
239,MAR,2007,22.5
240,MAR,2008,21.7
241,MAR,2009,23.2
242,MAR,2010,23.0
243,MAR,2011,21.3
244,MAR,2012,20.5
245,MAR,2013,18.8
246,MAR,2014,19.7
247,MAR,2015,19.0
248,MAR,2016,18.8
249,MAR,2017,20.1
250,MAR,2018,20.4
251,MAR,2019,16.1
252,FVG,2001,21.7
253,FVG,2002,21.1
254,FVG,2003,21.5
255,FVG,2005,17.2
256,FVG,2006,21.2
257,FVG,2007,21.0
258,FVG,2008,21.1
259,FVG,2009,20.6
260,FVG,2010,21.6
261,FVG,2011,21.4
262,FVG,2012,20.8
263,FVG,2013,19.2
264,FVG,2014,19.5
265,FVG,2015,18.5
266,FVG,2016,19.3
267,FVG,2017,17.1
268,FVG,2018,16.4
269,FVG,2019,17.8
270,PUG,2001,23.1
271,PUG,2002,19.9
272,PUG,2003,20.8
273,PUG,2005,19.1
274,PUG,2006,20.0
275,PUG,2007,20.8
276,PUG,2008,22.5
277,PUG,2009,20.8
278,PUG,2010,22.2
279,PUG,2011,21.0
280,PUG,2012,19.2
281,PUG,2013,18.7
282,PUG,2014,18.5
283,PUG,2015,17.0
284,PUG,2016,17.6
285,PUG,2017,18.0
286,PUG,2018,17.4
287,PUG,2019,17.0
288,VEN,2001,19.8
289,VEN,2002,19.9
290,VEN,2003,21.7
291,VEN,2005,19.6
292,VEN,2006,20.0
293,VEN,2007,18.9
294,VEN,2008,20.7
295,VEN,2009,22.3
296,VEN,2010,20.2
297,VEN,2011,18.6
298,VEN,2012,19.8
299,VEN,2013,18.7
300,VEN,2014,16.7
301,VEN,2015,17.3
302,VEN,2016,16.2
303,VEN,2017,18.0
304,VEN,2018,16.7
305,VEN,2019,15.7
306,LAZ,2001,28.0
307,LAZ,2002,26.9
308,LAZ,2003,27.0
309,LAZ,2005,24.7
310,LAZ,2006,25.7
311,LAZ,2007,24.4
312,LAZ,2008,23.3
313,LAZ,2009,24.6
314,LAZ,2010,26.7
315,LAZ,2011,27.3
316,LAZ,2012,22.9
317,LAZ,2013,23.7
318,LAZ,2014,21.2
319,LAZ,2015,21.1
320,LAZ,2016,21.2
321,LAZ,2017,19.1
322,LAZ,2018,23.4
323,LAZ,2019,22.7
324,LOM,2001,24.9
325,LOM,2002,26.1
326,LOM,2003,24.9
327,LOM,2005,23.4
328,LOM,2006,22.3
329,LOM,2007,21.8
330,LOM,2008,22.1
331,LOM,2009,23.5
332,LOM,2010,22.7
333,LOM,2011,22.9
334,LOM,2012,22.4
335,LOM,2013,20.5
336,LOM,2014,19.6
337,LOM,2015,19.0
338,LOM,2016,20.3
339,LOM,2017,20.6
340,LOM,2018,18.9
341,LOM,2019,17.2
342,TAA,2001,19.83333333333333
343,TAA,2002,20.133333333333333
344,TAA,2003,23.7
345,TAA,2005,19.233333333333327
346,TAA,2006,19.5
347,TAA,2007,20.4
348,TAA,2008,20.533333333333328
349,TAA,2009,19.4
350,TAA,2010,19.83333333333333
351,TAA,2011,18.533333333333328
352,TAA,2012,19.666666666666668
353,TAA,2013,17.8
354,TAA,2014,18.266666666666666
355,TAA,2015,16.666666666666668
356,TAA,2016,17.333333333333332
357,TAA,2017,16.599999999999998
358,TAA,2018,17.966666666666672
359,TAA,2019,15.866666666666667
