,Anno,Reg,Popolazione_residente,Superficie_territoriale,Densita
0,2012,ABR,1306416.0,10831.496399999996,120.61269761396963
1,2012,BAS,577562.0,10073.110500000004,57.33700628023488
2,2012,CAL,1958418.0,15221.614800000005,128.66033109706598
3,2012,CAM,5764424.0,13670.598,421.66582617673345
4,2012,EMR,4341240.0,22452.2072,193.3547094648227
5,2012,FVG,1217780.0,7862.154000000001,154.89139490271998
6,2012,LAZ,5500022.0,17231.832400000007,319.1780115038722
7,2012,LIG,1567339.0,5416.1343,289.38333379214765
8,2012,LOM,9700881.0,23863.0975,406.52228823186095
9,2012,MAR,1540688.0,9401.1839,163.8823382659284
10,2012,MOL,313145.0,4460.4373,70.20499985505906
11,2012,PIE,4357663.0,25386.697000000004,171.65143618328918
12,2012,PUG,4050072.0,19540.518100000005,207.2653334611429
13,2012,SAR,1637846.0,24099.7586,67.96109567670109
14,2012,SIC,4999854.0,25832.0162,193.55260391947263
15,2012,TAA,1029585.0,13604.720900000006,75.67850950915133
16,2012,TOS,3667780.0,22986.5793,159.56180135075599
17,2012,UMB,883215.0,8464.113699999998,104.34819655128216
18,2012,VDA,126620.0,3260.854600000001,38.830311538576424
19,2012,VEN,4853657.0,18406.855300000007,263.6874643111906
20,2013,ABR,1312507.0,10831.450000000004,121.17555821242769
21,2013,BAS,576194.0,10073.16,57.20091808330257
22,2013,CAL,1958238.0,15221.609999999995,128.64854637584332
23,2013,CAM,5769750.0,13670.579999999998,422.055977142155
24,2013,EMR,4377487.0,22452.27,194.96857110661858
25,2013,FVG,1221860.0,7862.1399999999985,155.41061339533513
26,2013,LAZ,5557276.0,17231.84,322.5004410440208
27,2013,LIG,1565127.0,5416.18,288.97248614337036
28,2013,LOM,9794525.0,23863.12,410.4461193674591
29,2013,MAR,1545155.0,9401.23,164.3566852422502
30,2013,MOL,313341.0,4460.41,70.24937169453032
31,2013,PIE,4374052.0,25386.80999999999,172.29624360051545
32,2013,PUG,4050803.0,19540.53,207.30261666392875
33,2013,SAR,1640379.0,24099.75,68.06622475336881
34,2013,SIC,4999932.0,25832.1,193.5549955288188
35,2013,TAA,1039934.0,13604.69,76.43937495084417
36,2013,TOS,3692828.0,22986.6,160.6513359957541
37,2013,UMB,886239.0,8464.12,104.70539170049572
38,2013,VDA,127844.0,3260.860000000001,39.205608336451114
39,2013,VEN,4881756.0,18406.92,265.21308290577684
40,2014,ABR,1333939.0,10831.450000000004,123.15424066029938
41,2014,BAS,578391.0,10073.16,57.419022431888315
42,2014,CAL,1980533.0,15221.609999999995,130.11324032083337
43,2014,CAM,5869965.0,13670.57,429.386997030848
44,2014,EMR,4446354.0,22452.24,198.036097957264
45,2014,FVG,1225361.0,7832.45,156.44670569234404
46,2014,LAZ,5870451.0,17231.84,340.674646468398
47,2014,LIG,1591939.0,5416.18,293.9228386058071
48,2014,LOM,9926687.0,23625.960000000006,420.16015433870194
49,2014,MAR,1553138.0,9401.230000000003,165.20582944997616
50,2014,MOL,314725.0,4460.41,70.55965707188355
51,2014,PIE,4436798.0,25386.809999999994,174.76784204080784
52,2014,PUG,4090266.0,19540.53,209.32216270490105
53,2014,SAR,1665299.0,24113.72,69.06022795321503
54,2014,SIC,5093497.0,25818.130000000005,197.28373046382518
55,2014,TAA,1042512.0,13273.64,78.54002368604242
56,2014,TOS,3749370.0,22905.3,163.69006299852
57,2014,UMB,896742.0,8464.12,105.94627675411027
58,2014,VDA,128591.0,3260.860000000001,39.43468900842108
59,2014,VEN,4921381.0,18284.56,269.1550138477491
60,2015,ABR,1331574.0,10831.496399999996,122.9353683762477
61,2015,BAS,576619.0,10073.110500000004,57.243390708361616
62,2015,CAL,1976631.0,15221.614800000005,129.8568532952233
63,2015,CAM,5861529.0,13670.598,428.7690267828809
64,2015,EMR,4450508.0,22452.207100000003,198.2214033648389
65,2015,FVG,1227122.0,7862.1541,156.07961690804302
66,2015,LAZ,5892425.0,17231.832400000007,341.94999482469416
67,2015,LIG,1583263.0,5416.134299999999,292.32343813926485
68,2015,LOM,10002615.0,23863.0976,419.1666634259586
69,2015,MAR,1550796.0,9401.1838,164.9575237535511
70,2015,MOL,313348.0,4460.437300000001,70.25051108778054
71,2015,PIE,4424467.0,25386.69700000001,174.2828931231187
72,2015,PUG,4090105.0,19540.518200000006,209.31404981880158
73,2015,SAR,1664699.0,24113.7326,69.03530978028678
74,2015,SIC,5090667.0,25818.0422,197.174788102252
75,2015,TAA,1055934.0,13604.721,77.6152631134442
76,2015,TOS,3752654.0,22986.579399999995,163.2541290593241
77,2015,UMB,894762.0,8464.113699999998,105.71242680731005
78,2015,VDA,128298.0,3260.854600000001,39.34490056686366
79,2015,VEN,4927596.0,18406.855300000007,267.7043916350013
80,2016,ABR,1326513.0,10831.496399999996,122.46811991739209
81,2016,BAS,573694.0,10073.110500000004,56.95301366941222
82,2016,CAL,1970521.0,15221.614800000005,129.45545041646955
83,2016,CAM,5850850.0,13670.598,427.9878612479132
84,2016,EMR,4448146.0,22452.206800000004,198.11620477324303
85,2016,FVG,1221218.0,7862.1543999999985,155.3286717442232
86,2016,LAZ,5888472.0,17231.722800000007,341.7227672673564
87,2016,LIG,1571053.0,5416.134299999999,290.06906272615885
88,2016,LOM,10008349.0,23863.0975,419.4069525131848
89,2016,MAR,1543752.0,9401.1839,164.2082546646067
90,2016,MOL,312027.0,4460.437300000001,69.9543517851938
91,2016,PIE,4404246.0,25386.69720000001,173.4863722248989
92,2016,PUG,4077166.0,19540.518100000005,208.6518883038213
93,2016,SAR,1658138.0,24099.7927,68.80299845898675
94,2016,SIC,5074261.0,25832.0161,196.4330225080651
95,2016,TAA,1059114.0,13604.7212,77.8490043588692
96,2016,TOS,3744398.0,22986.5794,162.89496296260592
97,2016,UMB,891181.0,8464.223399999999,105.28798188384302
98,2016,VDA,127329.0,3260.854600000001,39.04773920309111
99,2016,VEN,4915123.0,18406.855300000007,267.02676366451357
100,2017,ABR,1322247.0,10831.496399999996,122.07426851935257
101,2017,BAS,570365.0,10073.110500000004,56.62252985311735
102,2017,CAL,1965128.0,15221.614800000005,129.10115160712118
103,2017,CAM,5839084.0,13670.598,427.1271820003777
104,2017,EMR,4448841.0,22452.206900000005,198.14715853166302
105,2017,FVG,1217872.0,7862.1543999999985,154.9030886495946
106,2017,LAZ,5898124.0,17231.722800000007,342.2828969834634
107,2017,LIG,1565307.0,5416.134299999999,289.00815845722303
108,2017,LOM,10019166.0,23863.0975,419.8602465585199
109,2017,MAR,1538055.0,9401.1839,163.602267157012
110,2017,MOL,310449.0,4460.437300000001,69.60057481359506
111,2017,PIE,4392526.0,25386.69720000001,173.02471311628514
112,2017,PUG,4063888.0,19540.518100000005,207.97237715002038
113,2017,SAR,1653135.0,24099.792699999995,68.59540331232809
114,2017,SIC,5056641.0,25832.0161,195.75092321191295
115,2017,TAA,1062860.0,13604.7213,78.12434937568328
116,2017,TOS,3742437.0,22986.5794,162.80965231390624
117,2017,UMB,888908.0,8464.223299999998,105.0194410631865
118,2017,VDA,126883.0,3260.854600000001,38.91096524205647
119,2017,VEN,4907529.0,18406.855200000005,266.61420143077993
120,2018,ABR,1315196.0,10831.496399999996,121.42329660008942
121,2018,BAS,567118.0,10073.110500000004,56.300186521333195
122,2018,CAL,1956687.0,15221.614900000004,128.54661038626062
123,2018,CAM,5826860.0,13670.598,426.2330001950171
124,2018,EMR,4452629.0,22452.207,198.31587157556493
125,2018,FVG,1216853.0,7924.217199999999,153.56128804748062
126,2018,LAZ,5896693.0,17231.722800000007,342.1998524720928
127,2018,LIG,1556981.0,5416.134299999999,287.47089967839247
128,2018,LOM,10036258.0,23863.0975,420.57649892265664
129,2018,MAR,1531753.0,9401.1839,162.93192605241984
130,2018,MOL,308493.0,4460.437300000001,69.16205278796318
131,2018,PIE,4375865.0,25386.697400000005,172.3684231569247
132,2018,PUG,4048242.0,19540.518100000005,207.17168190131042
133,2018,SAR,1648176.0,24099.792699999995,68.38963390751492
134,2018,SIC,5026989.0,25832.0162,194.60304457381068
135,2018,TAA,1067648.0,13604.7213,78.47628602285296
136,2018,TOS,3736968.0,22986.5795,162.57173016977146
137,2018,UMB,884640.0,8464.223299999998,104.51520105808176
138,2018,VDA,126202.0,3260.854600000001,38.7021242836157
139,2018,VEN,4903722.0,18344.792500000003,267.3086653882838
140,2019,ABR,1311580.0,10831.496399999996,121.08945537755991
141,2019,BAS,562869.0,10073.110500000004,55.878370439796115
142,2019,CAL,1947131.0,15221.6149,127.91881891585629
143,2019,CAM,5801692.0,13670.598,424.39196880780196
144,2019,EMR,4459477.0,22444.542000000005,198.6887056995861
145,2019,FVG,1215220.0,7932.482199999998,153.19542727747944
146,2019,LAZ,5879082.0,17231.722700000006,341.1778440468984
147,2019,LIG,1550640.0,5416.151999999999,286.2992028288719
148,2019,LOM,10060574.0,23863.097399999995,421.59547988937936
149,2019,MAR,1525271.0,9401.1839,162.24243842310116
150,2019,MOL,305617.0,4460.437300000001,68.51727295886437
151,2019,PIE,4356406.0,25386.6971,171.6019213858269
152,2019,PUG,4029053.0,19540.518100000005,206.18967109167892
153,2019,SAR,1639591.0,24099.453,68.03436575925603
154,2019,SIC,4999891.0,25832.5454,193.5500711439764
155,2019,TAA,1072276.0,13604.7213,78.81646204689252
156,2019,TOS,3729641.0,22987.437100000006,162.24692573492672
157,2019,UMB,882015.0,8464.223299999998,104.20507218896273
158,2019,VDA,125666.0,3260.854600000001,38.53775019591489
159,2019,VEN,4905854.0,18345.369500000004,267.4164725872651
160,2020,ABR,1305770.0,10831.496399999996,120.55305673184738
161,2020,BAS,556934.0,10073.110500000004,55.289178054782575
162,2020,CAL,1924701.0,15221.6149,126.44525647538224
163,2020,CAM,5785861.0,13670.598,423.23393607214547
164,2020,EMR,4467118.0,22444.542000000005,199.0291448139151
165,2020,FVG,1211357.0,7932.482199999998,152.70844225783452
166,2020,LAZ,5865544.0,17231.722700000006,340.39220002072096
167,2020,LIG,1543127.0,5416.151999999999,284.9120556439333
168,2020,LOM,10103969.0,23863.0973,423.4139798776248
169,2020,MAR,1518400.0,9401.1839,161.5115730264568
170,2020,MOL,302265.0,4460.437300000001,67.76577713579786
171,2020,PIE,4341375.0,25386.6971,171.00983963762658
172,2020,PUG,4008296.0,19540.518100000005,205.12741675974289
173,2020,SAR,1630474.0,24099.453,67.65605841759148
174,2020,SIC,4968410.0,25832.545400000006,192.33141461932743
175,2020,TAA,1074819.0,13604.7211,79.00338361217857
176,2020,TOS,3722729.0,22987.437100000006,161.94623975719327
177,2020,UMB,880285.0,8464.223399999999,104.00068126746278
178,2020,VDA,125501.0,3260.854600000001,38.48714996369355
179,2020,VEN,4907704.0,18345.369400000003,267.51731693121417
