﻿Regioni;2004;2005;2006;2007;2008;2009;2010;2011;2012;2013;2014;2015;2016;2017;2018;2019;;;;;;;;;;;;;;;;;;;;;;;
                     ;;;;;;;;;;;;;;;;;;;;;;;;;;;;;;;;;;;;;;;
Piemonte             ;15,5;15,4;17,2;17,2;17,2;17,9;17,8;16,4;15,7;14,8;14,7;13,5;13,6;14,6;14,5;15,3;               ;               ;               ;               ;               ;               ;               ;               ;;;;;;;;;;;;;;;
Valle d'Aosta        ;13,9;13,9;18;13,4;15,3;14,8;16,2;15;14,8;12,3;12,7;11,9;11,7;12,7;12,6;13,3;               ;               ;               ;               ;               ;               ;               ;               ;;;;;;;;;;;;;;;
Lombardia            ;14,7;15,7;16,2;15,3;14,7;15,5;13,2;12,6;13,4;11,4;11,7;11,4;11,6;12,1;12,1;12,9;               ;               ;               ;               ;               ;               ;               ;               ;;;;;;;;;;;;;;;
Trentino-Alto Adige  ;               ;11,5;14,1;13,3;13,2;1,6;14,2;12,9;12,3;11;10,8;10,6;10,7;11,48;11,3;12,3;               ;               ;               ;               ;               ;               ;               ;               ;;;;;;;;;;;;;;;
Veneto               ;17,4;               ;19,4;17,4;18,5;19,3;20,1;18,2;17,8;15,6;15,7;14,5;14,6;15,8;15,7;16;               ;               ;               ;               ;               ;               ;               ;               ;;;;;;;;;;;;;;;
Friuli-Venezia Giulia;23,6;19,7;21;               ;17,9;20,7;15,6;18,7;18,4;16,3;16,9;15;15,6;18,1;17,6;18,9;               ;               ;               ;               ;               ;               ;               ;               ;;;;;;;;;;;;;;;
Liguria              ;22;22,4;24,1;23,8;22,5;23,2;24,1;22,1;21;15,8;18,5;15,3;16,1;16,3;18,3;18,5;               ;               ;               ;               ;               ;               ;               ;               ;;;;;;;;;;;;;;;
Emilia-Romagna       ;21,8;22,3;24,8;24,6;23,4;23,9;22,6;19,2;19,2;16,4;17;14,9;15,5;16,2;16,5;17,5;               ;               ;               ;               ;               ;               ;               ;               ;;;;;;;;;;;;;;;
Toscana              ;19,4;19,3;22,9;22,9;22,3;22,8;24,9;22,5;22,2;18,5;19,4;16,3;16,5;18,1;18,4;19,1;               ;               ;               ;               ;               ;               ;               ;               ;;;;;;;;;;;;;;;
Umbria               ;18,6;18,5;21,2;20,3;20,5;21,8;22;21,1;20,9;18,9;19,5;17,8;17,9;18,5;18,8;19,4;               ;               ;               ;               ;               ;               ;               ;               ;;;;;;;;;;;;;;;
Marche               ;19,6;19,7;20,8;20,3;19,7;20,8;21,1;18,7;18,4;15,9;16,5;13,5;14,5;15,4;15,3;16,5;               ;               ;               ;               ;               ;               ;               ;               ;;;;;;;;;;;;;;;
Lazio                ;17,9;18,3;20,7;20,6;19,4;19,9;20,7;18,9;18,1;16,1;16,5;14;14,3;14,9;15;15,5;               ;               ;               ;               ;               ;               ;               ;               ;;;;;;;;;;;;;;;
Abruzzo              ;18,7;18,5;20;20,7;20,4;19,7;19,4;16,5;16,5;13,2;14,7;11,1;12,3;13,7;13,9;15,2;               ;               ;               ;               ;               ;               ;               ;               ;;;;;;;;;;;;;;;
Molise               ;22,7;22,4;24;23,8;23,3;23,4;24,2;22,6;21,2;14,6;18,1;15,7;13,5;16,4;18,8;18,9;               ;               ;               ;               ;               ;               ;               ;               ;;;;;;;;;;;;;;;
Campania             ;17;16,9;18,9;18,8;17,4;18,8;19,5;17,5;18,5;15,2;16,4;13,9;14;15,3;15,4;15,9;               ;               ;               ;               ;               ;               ;               ;               ;;;;;;;;;;;;;;;
Puglia               ;16,7;17,5;21,3;21;21;22,7;24,7;22,5;21,9;17,2;17,8;14,6;14,9;18,1;18,9;17;               ;               ;               ;               ;               ;               ;               ;               ;;;;;;;;;;;;;;;
Basilicata           ;18,3;17,8;19,9;19,5;20,6;19,4;21,8;19,4;19,4;17,1;16,6;13,5;14,2;15,9;16,2;18,8;               ;               ;               ;               ;               ;               ;               ;               ;;;;;;;;;;;;;;;
Calabria             ;13,8;13,5;16,4;16,7;16,5;17,7;18,1;20,8;24,2;12,7;14,9;13,4;13,7;15,2;15,6;15,1;               ;               ;               ;               ;               ;               ;               ;               ;;;;;;;;;;;;;;;
Sicilia              ;16,4;16,7;18,9;16;               ;17,7;19,6;17,2;17,1;13,9;15,9;12,8;13,3;15,7;15,8;16;               ;               ;               ;               ;               ;               ;               ;               ;;;;;;;;;;;;;;;
Sardegna             ;11,8;23,7;15,1;13,3;11,9;14,2;18,5;17,5;16,2;13,4;13,8;12;11,1;12,5;13,2;14,2;               ;               ;               ;               ;               ;               ;               ;               ;;;;;;;;;;;;;;;
Italia               ;17,5;17,7;19,4;18,6;18,4;19,1;19,6;17,9;17,8;14,9;15,6;13,6;13,9;15,1;15,3;15,8;               ;               ;               ;               ;               ;               ;               ;               ;;;;;;;;;;;;;;;
               ;               ;               ;               ;               ;               ;               ;               ;               ;               ;               ;               ;               ;               ;               ;               ;               ;               ;               ;               ;               ;               ;               ;               ;               ;               ;               ;               ;               ;               ;               ;               ;               ;               ;               ;               ;               ;               ;               ;               
               ;               ;               ;               ;               ;               ;               ;               ;               ;               ;               ;               ;               ;               ;               ;               ;               ;               ;               ;               ;               ;               ;               ;               ;               ;               ;               ;               ;               ;               ;               ;               ;               ;               ;               ;               ;               ;               ;               ;               
               ;               ;               ;               ;               ;               ;               ;               ;               ;               ;               ;               ;               ;               ;               ;               ;               ;               ;               ;               ;               ;               ;               ;               ;               ;               ;               ;               ;               ;               ;               ;               ;               ;               ;               ;               ;               ;               ;               ;               
               ;               ;               ;               ;               ;               ;               ;               ;               ;               ;               ;               ;               ;               ;               ;               ;               ;               ;               ;               ;               ;               ;               ;               ;               ;               ;               ;               ;               ;               ;               ;               ;               ;               ;               ;               ;               ;               ;               ;               
               ;               ;               ;               ;               ;               ;               ;               ;               ;               ;               ;               ;               ;               ;               ;               ;               ;               ;               ;               ;               ;               ;               ;               ;               ;               ;               ;               ;               ;               ;               ;               ;               ;               ;               ;               ;               ;               ;               ;               
               ;               ;               ;               ;               ;               ;               ;               ;               ;               ;               ;               ;               ;               ;               ;               ;               ;               ;               ;               ;               ;               ;               ;               ;               ;               ;               ;               ;               ;               ;               ;               ;               ;               ;               ;               ;               ;               ;               ;               
               ;               ;               ;               ;               ;               ;               ;               ;               ;               ;               ;               ;               ;               ;               ;               ;               ;               ;               ;               ;               ;               ;               ;               ;               ;               ;               ;               ;               ;               ;               ;               ;               ;               ;               ;               ;               ;               ;               ;               
               ;               ;               ;               ;               ;               ;               ;               ;               ;               ;               ;               ;               ;               ;               ;               ;               ;               ;               ;               ;               ;               ;               ;               ;17,5;17,7;19,4;18,6;18,4;19,1;19,6;17,9;17,8;14,9;15,6;13,6;13,9;15,1;15,3;15,8
