data;denominazione_regione;ricoverati_con_sintomi;terapia_intensiva;totale_ospedalizzati;isolamento_domiciliare;totale_positivi;variazione_totale_positivi;nuovi_positivi;dimessi_guariti;deceduti;totale_casi;tamponi;casi_testati;note_it;note_en
24/02/2020;Abruzzo;0;0;0;0;0;0;0;0;0;0;5;;;
24/02/2020;Basilicata;0;0;0;0;0;0;0;0;0;0;0;;;
24/02/2020;P.A. Bolzano;0;0;0;0;0;0;0;0;0;0;1;;;
24/02/2020;Calabria;0;0;0;0;0;0;0;0;0;0;1;;;
24/02/2020;Campania;0;0;0;0;0;0;0;0;0;0;10;;;
24/02/2020;Emilia-Romagna;10;2;12;6;18;0;18;0;0;18;148;;;
24/02/2020;Friuli Venezia Giulia;0;0;0;0;0;0;0;0;0;0;58;;;
24/02/2020;Lazio;1;1;2;0;2;0;2;1;0;3;124;;;
24/02/2020;Liguria;0;0;0;0;0;0;0;0;0;0;1;;;
24/02/2020;Lombardia;76;19;95;71;166;0;166;0;6;172;1463;;;
24/02/2020;Marche;0;0;0;0;0;0;0;0;0;0;16;;;
24/02/2020;Molise;0;0;0;0;0;0;0;0;0;0;0;;;
24/02/2020;Piemonte;2;0;2;1;3;0;3;0;0;3;141;;;
24/02/2020;Puglia;0;0;0;0;0;0;0;0;0;0;0;;;
24/02/2020;Sardegna;0;0;0;0;0;0;0;0;0;0;1;;;
24/02/2020;Sicilia;0;0;0;0;0;0;0;0;0;0;5;;;
24/02/2020;Toscana;0;0;0;0;0;0;0;0;0;0;140;;;
24/02/2020;P.A. Trento;0;0;0;0;0;0;0;0;0;0;3;;;
24/02/2020;Umbria;0;0;0;0;0;0;0;0;0;0;0;;;
24/02/2020;Valle d'Aosta;0;0;0;0;0;0;0;0;0;0;7;;;
24/02/2020;Veneto;12;4;16;16;32;0;32;0;1;33;2200;;;
25/02/2020;Abruzzo;0;0;0;0;0;0;0;0;0;0;5;;;
25/02/2020;Basilicata;0;0;0;0;0;0;0;0;0;0;0;;;
25/02/2020;P.A. Bolzano;1;0;1;0;1;1;1;0;0;1;1;;;
25/02/2020;Calabria;0;0;0;0;0;0;0;0;0;0;2;;;
25/02/2020;Campania;0;0;0;0;0;0;0;0;0;0;10;;;
25/02/2020;Emilia-Romagna;15;2;17;9;26;8;8;0;0;26;391;;;
25/02/2020;Friuli Venezia Giulia;0;0;0;0;0;0;0;0;0;0;89;;;
25/02/2020;Lazio;1;1;2;0;2;0;0;1;0;3;124;;;
25/02/2020;Liguria;1;0;1;0;1;1;1;0;0;1;39;;;
25/02/2020;Lombardia;79;25;104;127;231;65;68;0;9;240;3700;;;
25/02/2020;Marche;0;0;0;0;0;0;0;0;0;0;21;;;
25/02/2020;Molise;0;0;0;0;0;0;0;0;0;0;0;;;
25/02/2020;Piemonte;2;0;2;1;3;0;0;0;0;3;141;;;
25/02/2020;Puglia;0;0;0;0;0;0;0;0;0;0;0;;;
25/02/2020;Sardegna;0;0;0;0;0;0;0;0;0;0;1;;;
25/02/2020;Sicilia;1;0;1;2;3;3;3;0;0;3;5;;;
25/02/2020;Toscana;2;0;2;0;2;2;2;0;0;2;296;;;
25/02/2020;P.A. Trento;0;0;0;0;0;0;0;0;0;0;3;;;
25/02/2020;Umbria;0;0;0;0;0;0;0;0;0;0;8;;;
25/02/2020;Valle d'Aosta;0;0;0;0;0;0;0;0;0;0;7;;;
25/02/2020;Veneto;12;7;19;23;42;10;10;0;1;43;3780;;;
26/02/2020;Abruzzo;0;0;0;0;0;0;0;0;0;0;13;;;
26/02/2020;Basilicata;0;0;0;0;0;0;0;0;0;0;0;;;
26/02/2020;P.A. Bolzano;1;0;1;0;1;0;0;0;0;1;1;;;
26/02/2020;Calabria;0;0;0;0;0;0;0;0;0;0;3;;;
26/02/2020;Campania;0;0;0;0;0;0;0;0;0;0;10;;;
26/02/2020;Emilia-Romagna;20;3;23;23;46;20;21;0;1;47;577;;;
26/02/2020;Friuli Venezia Giulia;0;0;0;0;0;0;0;0;0;0;114;;;
26/02/2020;Lazio;0;0;0;0;0;-2;0;3;0;3;124;;;
26/02/2020;Liguria;6;0;6;5;11;10;10;0;0;11;66;;;
26/02/2020;Lombardia;79;25;104;145;249;18;18;0;9;258;3208;;;
26/02/2020;Marche;1;0;1;0;1;1;1;0;0;1;28;;;
26/02/2020;Molise;0;0;0;0;0;0;0;0;0;0;0;;;
26/02/2020;Piemonte;2;0;2;1;3;0;0;0;0;3;156;;;
26/02/2020;Puglia;0;0;0;0;0;0;0;0;0;0;0;;;
26/02/2020;Sardegna;0;0;0;0;0;0;0;0;0;0;1;;;
26/02/2020;Sicilia;1;0;1;2;3;0;0;0;0;3;5;;;
26/02/2020;Toscana;2;0;2;0;2;0;0;0;0;2;363;;;
26/02/2020;P.A. Trento;0;0;0;0;0;0;0;0;0;0;3;;;
26/02/2020;Umbria;0;0;0;0;0;0;0;0;0;0;8;;;
26/02/2020;Valle d'Aosta;0;0;0;0;0;0;0;0;0;0;7;;;
26/02/2020;Veneto;16;8;24;45;69;27;28;0;2;71;4900;;;
27/02/2020;Abruzzo;1;0;1;0;1;1;1;0;0;1;33;;;
27/02/2020;Basilicata;0;0;0;0;0;0;0;0;0;0;0;;;
27/02/2020;P.A. Bolzano;1;0;1;0;1;0;0;0;0;1;2;;;
27/02/2020;Calabria;0;0;0;0;0;0;0;0;0;0;14;;;
27/02/2020;Campania;2;0;2;1;3;3;3;0;0;3;10;;;
27/02/2020;Emilia-Romagna;36;6;42;54;96;50;50;0;1;97;1033;;;
27/02/2020;Friuli Venezia Giulia;0;0;0;0;0;0;0;0;0;0;141;;;
27/02/2020;Lazio;0;0;0;0;0;0;0;3;0;3;552;;;
27/02/2020;Liguria;9;0;9;10;19;8;8;0;0;19;78;;;
27/02/2020;Lombardia;172;41;213;136;349;100;145;40;14;403;3320;;;
27/02/2020;Marche;2;1;3;0;3;2;2;0;0;3;46;;;
27/02/2020;Molise;0;0;0;0;0;0;0;0;0;0;0;;;
27/02/2020;Piemonte;2;0;2;0;2;-1;-1;0;0;2;156;;;
27/02/2020;Puglia;1;0;1;0;1;1;1;0;0;1;0;;;
27/02/2020;Sardegna;0;0;0;0;0;0;0;0;0;0;1;;;
27/02/2020;Sicilia;1;0;1;1;2;-1;1;2;0;4;5;;;
27/02/2020;Toscana;2;0;2;0;2;0;0;0;0;2;410;;;
27/02/2020;P.A. Trento;0;0;0;0;0;0;0;0;0;0;32;;;
27/02/2020;Umbria;0;0;0;0;0;0;0;0;0;0;8;;;
27/02/2020;Valle d'Aosta;0;0;0;0;0;0;0;0;0;0;9;;;
27/02/2020;Veneto;19;8;27;82;109;40;40;0;2;111;6164;;;
28/02/2020;Abruzzo;1;0;1;0;1;0;0;0;0;1;33;;;
28/02/2020;Basilicata;0;0;0;0;0;0;0;0;0;0;0;;;
28/02/2020;P.A. Bolzano;1;0;1;0;1;0;0;0;0;1;2;;;
28/02/2020;Calabria;0;0;0;1;1;1;1;0;0;1;21;;;
28/02/2020;Campania;2;0;2;2;4;1;1;0;0;4;213;;;
28/02/2020;Emilia-Romagna;56;6;62;81;143;47;48;0;2;145;1277;;;
28/02/2020;Friuli Venezia Giulia;0;0;0;0;0;0;0;0;0;0;169;;;
28/02/2020;Lazio;0;0;0;0;0;0;0;3;0;3;611;;;
28/02/2020;Liguria;9;0;9;10;19;0;0;0;0;19;112;;;
28/02/2020;Lombardia;235;47;282;192;474;125;128;40;17;531;4835;;;
28/02/2020;Marche;3;2;5;1;6;3;3;0;0;6;47;;;
28/02/2020;Molise;0;0;0;0;0;0;0;0;0;0;0;;;
28/02/2020;Piemonte;7;0;7;4;11;9;9;0;0;11;227;;;
28/02/2020;Puglia;1;0;1;2;3;2;2;0;0;3;242;;;
28/02/2020;Sardegna;0;0;0;0;0;0;0;0;0;0;1;;;
28/02/2020;Sicilia;1;0;1;1;2;0;0;2;0;4;5;;;
28/02/2020;Toscana;5;0;5;2;7;5;6;1;0;8;437;;;
28/02/2020;P.A. Trento;0;0;0;0;0;0;0;0;0;0;32;;;
28/02/2020;Umbria;0;0;0;0;0;0;0;0;0;0;8;;;
28/02/2020;Valle d'Aosta;0;0;0;0;0;0;0;0;0;0;9;;;
28/02/2020;Veneto;24;9;33;116;149;40;40;0;2;151;7414;;;
29/02/2020;Abruzzo;2;0;2;0;2;1;1;0;0;2;43;;;
29/02/2020;Basilicata;0;0;0;0;0;0;0;0;0;0;32;;;
29/02/2020;P.A. Bolzano;1;0;1;0;1;0;0;0;0;1;16;;;
29/02/2020;Calabria;0;0;0;1;1;0;0;0;0;1;27;;;
29/02/2020;Campania;3;0;3;10;13;9;9;0;0;13;373;;;
29/02/2020;Emilia-Romagna;86;11;97;116;213;70;72;0;4;217;1550;;;
29/02/2020;Friuli Venezia Giulia;0;0;0;0;0;0;0;0;0;0;189;;;
29/02/2020;Lazio;3;0;3;0;3;3;3;3;0;6;679;;;
29/02/2020;Liguria;4;1;5;33;38;19;23;4;0;42;121;;;
29/02/2020;Lombardia;256;80;336;216;552;78;84;40;23;615;5723;;;
29/02/2020;Marche;6;2;8;3;11;5;5;0;0;11;68;;;
29/02/2020;Molise;0;0;0;0;0;0;0;0;0;0;0;;;
29/02/2020;Piemonte;7;0;7;4;11;0;0;0;0;11;308;;;
29/02/2020;Puglia;1;0;1;2;3;0;0;0;0;3;252;;;
29/02/2020;Sardegna;0;0;0;0;0;0;0;0;0;0;1;;;
29/02/2020;Sicilia;1;0;1;1;2;0;0;2;0;4;6;;;
29/02/2020;Toscana;7;0;7;3;10;3;3;1;0;11;531;;;
29/02/2020;P.A. Trento;0;0;0;0;0;0;0;0;0;0;43;;;
29/02/2020;Umbria;0;0;0;0;0;0;0;0;0;0;31;;;
29/02/2020;Valle d'Aosta;0;0;0;0;0;0;0;0;0;0;9;;;
29/02/2020;Veneto;24;11;35;154;189;40;40;0;2;191;8659;;;
01/03/2020;Abruzzo;3;0;3;2;5;3;3;0;0;5;52;;;
01/03/2020;Basilicata;0;0;0;0;0;0;0;0;0;0;39;;;
01/03/2020;P.A. Bolzano;1;0;1;0;1;0;0;0;0;1;20;;;
01/03/2020;Calabria;0;0;0;1;1;0;0;0;0;1;35;;;
01/03/2020;Campania;4;0;4;13;17;4;4;0;0;17;373;;;
01/03/2020;Emilia-Romagna;127;13;140;137;277;64;68;0;8;285;1795;;;
01/03/2020;Friuli Venezia Giulia;0;0;0;6;6;6;6;0;0;6;243;;;
01/03/2020;Lazio;3;0;3;0;3;0;0;3;0;6;724;;;
01/03/2020;Liguria;12;1;13;8;21;-17;-17;4;0;25;121;;;
01/03/2020;Lombardia;406;106;512;375;887;335;369;73;24;984;6879;;;
01/03/2020;Marche;12;5;17;8;25;14;14;0;0;25;101;;;
01/03/2020;Molise;0;0;0;0;0;0;0;0;0;0;6;;;
01/03/2020;Piemonte;11;2;13;36;49;38;38;0;0;49;362;;;
01/03/2020;Puglia;1;0;1;2;3;0;0;0;0;3;262;;;
01/03/2020;Sardegna;0;0;0;0;0;0;0;0;0;0;29;;;
01/03/2020;Sicilia;1;0;1;6;7;5;5;2;0;9;291;;;
01/03/2020;Toscana;7;0;7;5;12;2;2;1;0;13;572;;;
01/03/2020;P.A. Trento;0;0;0;0;0;0;0;0;0;0;122;;;
01/03/2020;Umbria;0;0;0;2;2;2;2;0;0;2;35;;;
01/03/2020;Valle d'Aosta;0;0;0;0;0;0;0;0;0;0;10;;;
01/03/2020;Veneto;51;13;64;197;261;72;72;0;2;263;9056;;;
02/03/2020;Abruzzo;3;0;3;2;5;0;0;0;0;5;52;;;
02/03/2020;Basilicata;0;0;0;0;0;0;0;0;0;0;39;;;
02/03/2020;P.A. Bolzano;1;0;1;0;1;0;0;0;0;1;20;;;
02/03/2020;Calabria;0;0;0;1;1;0;0;0;0;1;39;;;
02/03/2020;Campania;4;0;4;13;17;0;0;0;0;17;373;;;
02/03/2020;Emilia-Romagna;148;16;164;160;324;47;50;0;11;335;1973;;;
02/03/2020;Friuli Venezia Giulia;0;0;0;9;9;3;3;0;0;9;269;;;
02/03/2020;Lazio;3;0;3;1;4;1;1;3;0;7;773;;;
02/03/2020;Liguria;12;1;13;5;18;-3;-3;4;0;22;121;;;
02/03/2020;Lombardia;478;127;605;472;1077;190;270;139;38;1254;7925;;;
02/03/2020;Marche;17;6;23;11;34;9;10;0;1;35;137;;;
02/03/2020;Molise;0;0;0;0;0;0;0;0;0;0;13;;;
02/03/2020;Piemonte;12;2;14;37;51;2;2;0;0;51;434;;;
02/03/2020;Puglia;2;0;2;2;4;1;1;0;0;4;278;;;
02/03/2020;Sardegna;0;0;0;0;0;0;0;0;0;0;29;;;
02/03/2020;Sicilia;2;0;2;3;5;-2;-2;2;0;7;307;;;
02/03/2020;Toscana;7;0;7;5;12;0;0;1;0;13;613;;;
02/03/2020;P.A. Trento;0;0;0;0;0;0;0;0;0;0;122;;;
02/03/2020;Umbria;0;0;0;2;2;0;0;0;0;2;35;;;
02/03/2020;Valle d'Aosta;0;0;0;0;0;0;0;0;0;0;11;;;
02/03/2020;Veneto;53;14;67;204;271;10;10;0;2;273;9782;;;
03/03/2020;Abruzzo;5;0;5;1;6;1;1;0;0;6;52;;;
03/03/2020;Basilicata;0;0;0;1;1;1;1;0;0;1;42;;;
03/03/2020;P.A. Bolzano;1;0;1;0;1;0;0;0;0;1;20;;;
03/03/2020;Calabria;0;0;0;1;1;0;0;0;0;1;39;;;
03/03/2020;Campania;11;0;11;19;30;13;13;0;0;30;405;;;
03/03/2020;Emilia-Romagna;187;24;211;187;398;74;85;4;18;420;2012;;;
03/03/2020;Friuli Venezia Giulia;1;0;1;12;13;4;4;0;0;13;354;;;
03/03/2020;Lazio;10;0;10;1;11;7;7;3;0;14;877;;;
03/03/2020;Liguria;12;2;14;5;19;1;2;4;1;24;121;;;
03/03/2020;Lombardia;698;167;865;461;1326;249;266;139;55;1520;9577;;;
03/03/2020;Marche;27;13;40;19;59;25;26;0;2;61;200;;;
03/03/2020;Molise;3;0;3;0;3;3;3;0;0;3;13;;;
03/03/2020;Piemonte;13;3;16;40;56;5;5;0;0;56;458;;;
03/03/2020;Puglia;2;0;2;4;6;2;2;0;0;6;298;;;
03/03/2020;Sardegna;1;0;1;0;1;1;1;0;0;1;29;;;
03/03/2020;Sicilia;2;0;2;3;5;0;0;2;0;7;307;;;
03/03/2020;Toscana;10;0;10;8;18;6;6;1;0;19;697;;;
03/03/2020;P.A. Trento;1;0;1;3;4;4;4;0;0;4;122;;;
03/03/2020;Umbria;1;1;2;6;8;6;6;0;0;8;45;;;
03/03/2020;Valle d'Aosta;0;0;0;0;0;0;0;0;0;0;12;;;
03/03/2020;Veneto;49;19;68;229;297;26;34;7;3;307;10176;;;
04/03/2020;Abruzzo;7;0;7;0;7;1;1;0;0;7;85;;;
04/03/2020;Basilicata;0;0;0;1;1;0;0;0;0;1;48;;;
04/03/2020;P.A. Bolzano;1;0;1;0;1;0;0;0;0;1;20;;;
04/03/2020;Calabria;0;0;0;1;1;0;0;0;0;1;46;;;
04/03/2020;Campania;11;0;11;20;31;1;1;0;0;31;429;;;
04/03/2020;Emilia-Romagna;256;26;282;234;516;118;124;6;22;544;2500;;;
04/03/2020;Friuli Venezia Giulia;3;0;3;15;18;5;5;0;0;18;376;;;
04/03/2020;Lazio;15;3;18;9;27;16;16;3;0;30;995;;;
04/03/2020;Liguria;10;3;13;8;21;2;2;4;1;26;133;;;
04/03/2020;Lombardia;877;209;1086;411;1497;171;300;250;73;1820;12138;;;
04/03/2020;Marche;34;15;49;31;80;21;23;0;4;84;288;;;
04/03/2020;Molise;3;0;3;0;3;0;0;0;0;3;19;;;
04/03/2020;Piemonte;26;13;39;43;82;26;26;0;0;82;543;;;
04/03/2020;Puglia;4;0;4;3;7;1;3;1;1;9;322;;;
04/03/2020;Sardegna;1;0;1;1;2;1;1;0;0;2;42;;;
04/03/2020;Sicilia;5;0;5;11;16;11;11;2;0;18;367;;;
04/03/2020;Toscana;15;2;17;20;37;19;19;1;0;38;776;;;
04/03/2020;P.A. Trento;1;0;1;4;5;1;1;0;0;5;122;;;
04/03/2020;Umbria;1;1;2;7;9;1;1;0;0;9;58;;;
04/03/2020;Valle d'Aosta;0;0;0;0;0;0;0;0;0;0;15;;;
04/03/2020;Veneto;76;23;99;246;345;48;53;9;6;360;10515;;;
05/03/2020;Abruzzo;8;0;8;0;8;1;1;0;0;8;96;;;
05/03/2020;Basilicata;0;0;0;1;1;0;0;0;0;1;54;;;
05/03/2020;P.A. Bolzano;1;0;1;0;1;0;0;0;0;1;20;;;
05/03/2020;Calabria;1;0;1;1;2;1;1;0;0;2;53;;;
05/03/2020;Campania;12;0;12;33;45;14;14;0;0;45;471;;;
05/03/2020;Emilia-Romagna;327;32;359;299;658;142;154;10;30;698;2884;;;
05/03/2020;Friuli Venezia Giulia;4;0;4;17;21;3;3;0;0;21;397;;;
05/03/2020;Lazio;20;7;27;14;41;14;14;3;0;44;1175;;;
05/03/2020;Liguria;11;3;14;7;21;0;2;4;3;28;146;;;
05/03/2020;Lombardia;1169;244;1413;364;1777;280;431;376;98;2251;12354;;;
05/03/2020;Marche;57;19;76;44;120;40;40;0;4;124;413;;;
05/03/2020;Molise;4;0;4;3;7;4;4;0;0;7;24;;;
05/03/2020;Piemonte;43;17;60;46;106;24;26;0;2;108;543;;;
05/03/2020;Puglia;5;1;6;6;12;5;5;1;1;14;359;;;
05/03/2020;Sardegna;2;0;2;0;2;0;0;0;0;2;50;;;
05/03/2020;Sicilia;5;0;5;11;16;0;0;2;0;18;367;;;
05/03/2020;Toscana;26;3;29;31;60;23;23;1;0;61;776;;;
05/03/2020;P.A. Trento;2;0;2;5;7;2;2;0;0;7;122;;;
05/03/2020;Umbria;1;1;2;7;9;0;0;0;0;9;88;;;
05/03/2020;Valle d'Aosta;0;0;0;2;2;2;2;0;0;2;21;;;
05/03/2020;Veneto;92;24;116;264;380;35;47;17;10;407;11949;;;
06/03/2020;Abruzzo;9;0;9;0;9;1;1;0;0;9;96;;;
06/03/2020;Basilicata;1;0;1;2;3;2;2;0;0;3;63;;;
06/03/2020;P.A. Bolzano;4;0;4;0;4;3;3;0;0;4;36;;;
06/03/2020;Calabria;2;0;2;2;4;2;2;0;0;4;99;;;
06/03/2020;Campania;12;0;12;45;57;12;12;0;0;57;471;;;
06/03/2020;Emilia-Romagna;397;53;450;366;816;158;172;17;37;870;3136;;;
06/03/2020;Friuli Venezia Giulia;4;0;4;24;28;7;10;3;0;31;577;;;
06/03/2020;Lazio;26;8;34;16;50;9;10;3;1;54;1373;;;
06/03/2020;Liguria;12;5;17;7;24;3;4;5;3;32;229;;;
06/03/2020;Lombardia;1622;309;1931;77;2008;231;361;469;135;2612;13556;;;
06/03/2020;Marche;73;20;93;62;155;35;35;0;4;159;585;;;
06/03/2020;Molise;3;2;5;7;12;5;5;0;0;12;104;;;
06/03/2020;Piemonte;57;30;87;52;139;33;35;0;4;143;793;;;
06/03/2020;Puglia;5;1;6;9;15;3;3;1;1;17;395;;;
06/03/2020;Sardegna;2;0;2;3;5;3;3;0;0;5;99;;;
06/03/2020;Sicilia;7;0;7;15;22;6;6;2;0;24;367;;;
06/03/2020;Toscana;35;5;40;38;78;18;18;1;0;79;1097;;;
06/03/2020;P.A. Trento;4;0;4;6;10;3;3;0;0;10;122;;;
06/03/2020;Umbria;2;2;4;12;16;7;7;0;0;16;110;;;
06/03/2020;Valle d'Aosta;0;0;0;7;7;5;5;0;0;7;28;;;
06/03/2020;Veneto;117;27;144;310;454;74;81;22;12;488;13023;;;
07/03/2020;Abruzzo;11;0;11;0;11;2;2;0;0;11;123;;;
07/03/2020;Basilicata;1;0;1;2;3;0;0;0;0;3;75;;;
07/03/2020;P.A. Bolzano;8;0;8;1;9;5;5;0;0;9;36;;;
07/03/2020;Calabria;2;0;2;2;4;0;0;0;0;4;113;;;
07/03/2020;Campania;16;0;16;45;61;4;4;0;0;61;612;;;
07/03/2020;Emilia-Romagna;464;64;528;409;937;121;140;25;48;1010;3604;;;
07/03/2020;Friuli Venezia Giulia;7;1;8;31;39;11;11;3;0;42;577;;;
07/03/2020;Lazio;43;8;51;21;72;22;22;3;1;76;1582;;;
07/03/2020;Liguria;26;6;32;10;42;18;19;5;4;51;331;;;
07/03/2020;Lombardia;1661;359;2020;722;2742;734;808;524;154;3420;15778;;pd-IT-0002;pd-EN-0002
07/03/2020;Marche;94;36;130;71;201;46;48;0;6;207;816;;;
07/03/2020;Molise;3;2;5;9;14;2;2;0;0;14;112;;;
07/03/2020;Piemonte;110;38;148;54;202;63;64;0;5;207;1046;;;
07/03/2020;Puglia;9;2;11;12;23;8;9;1;2;26;395;;;
07/03/2020;Sardegna;2;0;2;3;5;0;0;0;0;5;99;;;
07/03/2020;Sicilia;8;0;8;25;33;11;11;2;0;35;643;;;
07/03/2020;Toscana;54;7;61;51;112;34;34;1;0;113;1331;;;
07/03/2020;P.A. Trento;6;1;7;7;14;4;4;0;0;14;194;;;
07/03/2020;Umbria;2;2;4;20;24;8;8;0;0;24;134;;;
07/03/2020;Valle d'Aosta;1;0;1;7;8;1;1;0;0;8;32;;;
07/03/2020;Veneto;123;41;164;341;505;51;55;25;13;543;14429;;;
08/03/2020;Abruzzo;14;0;14;3;17;6;6;0;0;17;163;;;
08/03/2020;Basilicata;2;0;2;2;4;1;1;0;0;4;123;;;
08/03/2020;P.A. Bolzano;8;0;8;1;9;0;0;0;0;9;36;;;
08/03/2020;Calabria;5;0;5;4;9;5;5;0;0;9;113;;;
08/03/2020;Campania;30;7;37;63;100;39;40;1;0;101;980;;;
08/03/2020;Emilia-Romagna;542;75;617;480;1097;160;170;27;56;1180;4344;;;
08/03/2020;Friuli Venezia Giulia;7;1;8;45;53;14;15;3;1;57;997;;;
08/03/2020;Lazio;47;8;55;26;81;9;11;3;3;87;1929;;;
08/03/2020;Liguria;39;11;50;17;67;25;27;5;6;78;401;;;
08/03/2020;Lombardia;2217;399;2616;756;3372;630;769;550;267;4189;18534;;;
08/03/2020;Marche;110;41;151;114;265;64;65;0;7;272;1025;;;
08/03/2020;Molise;4;2;6;8;14;0;0;0;0;14;116;;;
08/03/2020;Piemonte;245;45;290;65;355;153;153;0;5;360;1636;;;
08/03/2020;Puglia;17;3;20;16;36;13;14;1;3;40;627;;;
08/03/2020;Sardegna;5;0;5;6;11;6;6;0;0;11;149;;;
08/03/2020;Sicilia;18;0;18;33;51;18;18;2;0;53;791;;;
08/03/2020;Toscana;91;7;98;67;165;53;53;1;0;166;1618;;;
08/03/2020;P.A. Trento;7;2;9;14;23;9;9;0;0;23;228;;;
08/03/2020;Umbria;2;2;4;22;26;2;2;0;0;26;168;;;
08/03/2020;Valle d'Aosta;1;0;1;8;9;1;1;0;0;9;41;;;
08/03/2020;Veneto;146;47;193;430;623;118;127;29;18;670;15918;;;
09/03/2020;Abruzzo;25;0;25;5;30;13;13;0;0;30;237;;;
09/03/2020;Basilicata;2;0;2;3;5;1;1;0;0;5;135;;;
09/03/2020;P.A. Bolzano;8;0;8;1;9;0;0;0;0;9;36;;;
09/03/2020;Calabria;8;0;8;1;9;0;2;2;0;11;173;;;
09/03/2020;Campania;42;8;50;69;119;19;19;1;0;120;980;;;
09/03/2020;Emilia-Romagna;576;90;666;620;1286;189;206;30;70;1386;4906;;;
09/03/2020;Friuli Venezia Giulia;18;1;19;70;89;36;36;3;1;93;1344;;;
09/03/2020;Lazio;55;8;63;31;94;13;15;3;5;102;1929;;;
09/03/2020;Liguria;60;17;77;20;97;30;31;5;7;109;611;;;
09/03/2020;Lombardia;2802;440;3242;1248;4490;1118;1280;646;333;5469;20135;;;
09/03/2020;Marche;136;47;183;130;313;48;51;0;10;323;1250;;;
09/03/2020;Molise;4;2;6;8;14;0;0;0;0;14;212;;;
09/03/2020;Piemonte;222;50;272;65;337;-18;-10;0;13;350;1681;;;
09/03/2020;Puglia;20;6;26;20;46;10;10;1;3;50;685;;;
09/03/2020;Sardegna;8;0;8;11;19;8;8;0;0;19;185;;;
09/03/2020;Sicilia;19;0;19;33;52;1;1;2;0;54;836;;;
09/03/2020;Toscana;107;9;116;90;206;41;42;1;1;208;2018;;;
09/03/2020;P.A. Trento;10;2;12;21;33;10;10;0;0;33;267;;;
09/03/2020;Umbria;4;2;6;22;28;2;2;0;0;28;183;;;
09/03/2020;Valle d'Aosta;4;0;4;11;15;6;6;0;0;15;67;;;
09/03/2020;Veneto;186;51;237;457;694;71;74;30;20;744;15956;;;
10/03/2020;Abruzzo;17;9;26;11;37;7;8;0;1;38;310;;;
10/03/2020;Basilicata;2;0;2;5;7;2;2;0;0;7;148;;;
10/03/2020;P.A. Bolzano;17;1;18;20;38;29;29;0;0;38;36;;;
10/03/2020;Calabria;8;2;10;1;11;2;2;2;0;13;360;;;
10/03/2020;Campania;33;8;41;85;126;7;7;1;0;127;1141;;;
10/03/2020;Emilia-Romagna;669;98;767;650;1417;131;147;31;85;1533;5494;;;
10/03/2020;Friuli Venezia Giulia;27;6;33;77;110;21;23;3;3;116;1602;;;
10/03/2020;Lazio;50;15;65;34;99;5;14;11;6;116;3591;;;
10/03/2020;Liguria;57;29;86;42;128;31;32;5;8;141;694;;;
10/03/2020;Lombardia;3319;466;3785;642;4427;-63;322;896;468;5791;21479;;pd-IT-0004;pd-EN-0004
10/03/2020;Marche;152;54;206;175;381;68;71;0;13;394;1437;;;
10/03/2020;Molise;3;3;6;9;15;1;1;0;0;15;225;;;
10/03/2020;Piemonte;306;66;372;64;436;99;103;0;17;453;2374;;;
10/03/2020;Puglia;28;6;34;21;55;9;9;1;3;59;747;;;
10/03/2020;Sardegna;9;0;9;11;20;1;1;0;0;20;204;;;
10/03/2020;Sicilia;17;2;19;41;60;8;8;2;0;62;955;;;
10/03/2020;Toscana;91;40;131;129;260;54;56;3;1;264;2573;;;
10/03/2020;P.A. Trento;19;3;22;28;50;17;19;2;0;52;399;;;
10/03/2020;Umbria;8;2;10;27;37;9;9;0;0;37;260;;;
10/03/2020;Valle d'Aosta;2;0;2;15;17;2;2;0;0;17;89;;;
10/03/2020;Veneto;204;67;271;512;783;89;112;47;26;856;16643;;;
11/03/2020;Abruzzo;17;9;26;11;37;0;0;0;1;38;310;;nd-IT-0001;nd-EN-0001
11/03/2020;Basilicata;1;1;2;6;8;1;1;0;0;8;155;;;
11/03/2020;P.A. Bolzano;8;4;12;63;75;37;37;0;0;75;75;;;
11/03/2020;Calabria;10;2;12;5;17;6;6;2;0;19;405;;;
11/03/2020;Campania;56;11;67;82;149;23;27;4;1;154;1375;;;
11/03/2020;Emilia-Romagna;745;104;849;739;1588;171;206;38;113;1739;6640;;;
11/03/2020;Friuli Venezia Giulia;16;5;21;89;110;0;10;10;6;126;2073;;;
11/03/2020;Lazio;67;18;85;40;125;26;34;19;6;150;3591;;;
11/03/2020;Liguria;74;34;108;73;181;53;53;5;8;194;1025;;;
11/03/2020;Lombardia;3852;560;4412;1351;5763;1336;1489;900;617;7280;25629;;;
11/03/2020;Marche;212;66;278;183;461;80;85;0;18;479;1656;;;
11/03/2020;Molise;4;3;7;9;16;1;1;0;0;16;233;;;
11/03/2020;Piemonte;319;75;394;86;480;44;48;0;21;501;2431;;;
11/03/2020;Puglia;38;4;42;29;71;16;18;1;5;77;909;;;
11/03/2020;Sardegna;10;0;10;27;37;17;17;0;0;37;283;;;
11/03/2020;Sicilia;23;1;24;57;81;21;21;2;0;83;1194;;;
11/03/2020;Toscana;87;54;141;173;314;54;56;5;1;320;2804;;;
11/03/2020;P.A. Trento;28;4;32;42;74;24;25;3;0;77;527;;;
11/03/2020;Umbria;7;5;12;32;44;7;9;2;0;46;340;;;
11/03/2020;Valle d'Aosta;2;0;2;17;19;2;3;0;1;20;99;;;
11/03/2020;Veneto;262;68;330;610;940;157;167;54;29;1023;21400;;;
12/03/2020;Abruzzo;47;12;59;19;78;41;46;4;2;84;867;;;
12/03/2020;Basilicata;1;1;2;6;8;0;0;0;0;8;155;;;
12/03/2020;P.A. Bolzano;21;4;25;78;103;28;29;0;1;104;607;;;
12/03/2020;Calabria;14;2;16;16;32;15;14;1;0;33;483;;;
12/03/2020;Campania;56;11;67;107;174;25;25;4;1;179;1551;;;
12/03/2020;Emilia-Romagna;814;112;926;832;1758;170;208;43;146;1947;7600;;;
12/03/2020;Friuli Venezia Giulia;23;10;33;115;148;38;41;11;8;167;2604;;;
12/03/2020;Lazio;85;20;105;67;172;47;50;19;9;200;5592;;;
12/03/2020;Liguria;100;36;136;107;243;62;80;20;11;274;1174;;;
12/03/2020;Lombardia;4247;605;4852;2044;6896;1133;1445;1085;744;8725;29534;;;
12/03/2020;Marche;254;76;330;240;570;109;113;0;22;592;1907;;;
12/03/2020;Molise;4;3;7;9;16;0;0;0;0;16;238;;;
12/03/2020;Piemonte;368;97;465;89;554;74;79;0;26;580;2879;;;
12/03/2020;Puglia;58;2;60;38;98;27;27;1;5;104;1269;;;
12/03/2020;Sardegna;12;0;12;27;39;2;2;0;0;39;302;;;
12/03/2020;Sicilia;28;5;33;78;111;30;32;2;2;115;1477;;;
12/03/2020;Toscana;100;59;159;193;352;38;44;7;5;364;3165;;;
12/03/2020;P.A. Trento;43;5;48;54;102;28;30;4;1;107;593;;;
12/03/2020;Umbria;8;8;16;46;62;18;18;2;0;64;458;;;
12/03/2020;Valle d'Aosta;7;0;7;19;26;7;7;0;1;27;118;;;
12/03/2020;Veneto;360;85;445;852;1297;357;361;55;32;1384;23438;;;
13/03/2020;Abruzzo;42;14;56;27;83;5;5;4;2;89;958;;;
13/03/2020;Basilicata;1;1;2;8;10;2;2;0;0;10;155;;;
13/03/2020;P.A. Bolzano;20;5;25;98;123;20;21;0;2;125;811;;;
13/03/2020;Calabria;18;3;21;16;37;5;5;1;0;38;504;;;
13/03/2020;Campania;60;19;79;134;213;39;41;5;2;220;1671;;;
13/03/2020;Emilia-Romagna;942;128;1070;941;2011;253;316;51;201;2263;8787;;;
13/03/2020;Friuli Venezia Giulia;59;8;67;169;236;88;90;11;10;257;3149;;;
13/03/2020;Lazio;122;24;146;96;242;70;77;24;11;277;6491;;;
13/03/2020;Liguria;128;44;172;132;304;61;71;24;17;345;1442;;;
13/03/2020;Lombardia;4435;650;5085;2647;7732;836;1095;1198;890;9820;32700;;;
13/03/2020;Marche;337;85;422;276;698;128;133;0;27;725;2218;;;
13/03/2020;Molise;5;3;8;9;17;1;1;0;0;17;243;;;
13/03/2020;Piemonte;556;135;691;103;794;240;260;0;46;840;3105;;;
13/03/2020;Puglia;77;2;79;42;121;23;25;3;5;129;1449;;;
13/03/2020;Sardegna;12;0;12;31;43;4;4;0;0;43;504;;;
13/03/2020;Sicilia;37;7;44;82;126;15;15;2;2;130;1950;;;
13/03/2020;Toscana;134;77;211;244;455;103;106;10;5;470;4049;;;
13/03/2020;P.A. Trento;58;6;64;93;157;55;56;4;2;163;846;;;
13/03/2020;Umbria;11;10;21;52;73;11;12;2;1;76;576;;;
13/03/2020;Valle d'Aosta;6;0;6;21;27;1;1;0;1;28;189;;;
13/03/2020;Veneto;366;107;473;980;1453;156;211;100;42;1595;25691;;;
14/03/2020;Abruzzo;51;14;65;41;106;23;23;4;2;112;1232;;;
14/03/2020;Basilicata;0;2;2;8;10;0;0;0;0;10;155;;;
14/03/2020;P.A. Bolzano;26;7;33;137;170;47;48;0;3;173;1135;;;
14/03/2020;Calabria;22;4;26;33;59;22;22;1;0;60;711;;;
14/03/2020;Campania;72;17;89;154;243;30;52;23;6;272;1936;;;
14/03/2020;Emilia-Romagna;1076;152;1228;1121;2349;338;381;54;241;2644;10043;;;
14/03/2020;Friuli Venezia Giulia;67;11;78;193;271;35;44;17;13;301;3376;;;
14/03/2020;Lazio;181;25;206;114;320;78;80;24;13;357;7335;;;
14/03/2020;Liguria;213;62;275;109;384;80;118;52;27;463;1750;;;
14/03/2020;Lombardia;4898;732;5630;3429;9059;1327;1865;1660;966;11685;37138;;;
14/03/2020;Marche;449;93;542;321;863;165;174;0;36;899;2561;;;
14/03/2020;Molise;5;3;8;9;17;0;0;0;0;17;247;;;
14/03/2020;Piemonte;538;150;688;126;814;20;33;0;59;873;3680;;;
14/03/2020;Puglia;91;6;97;59;156;35;37;2;8;166;1681;;;
14/03/2020;Sardegna;14;0;14;33;47;4;4;0;0;47;530;;;
14/03/2020;Sicilia;42;11;53;97;150;24;26;4;2;156;2100;;;
14/03/2020;Toscana;160;87;247;367;614;159;160;10;6;630;4595;;;
14/03/2020;P.A. Trento;68;12;80;119;199;42;43;5;2;206;1006;;;
14/03/2020;Umbria;21;11;32;71;103;30;31;3;1;107;748;;;
14/03/2020;Valle d'Aosta;12;0;12;29;41;14;14;0;1;42;231;;;
14/03/2020;Veneto;366;119;485;1290;1775;322;342;107;55;1937;26980;;;
15/03/2020;Abruzzo;72;28;100;28;128;22;25;6;3;137;1419;;;
15/03/2020;Basilicata;0;2;2;9;11;1;1;0;0;11;208;;;
15/03/2020;P.A. Bolzano;50;4;54;145;199;29;31;0;5;204;1497;;;
15/03/2020;Calabria;32;6;38;28;66;7;8;1;1;68;884;;;
15/03/2020;Campania;73;22;95;201;296;53;61;28;9;333;2213;;;
15/03/2020;Emilia-Romagna;1215;169;1384;1357;2741;392;449;68;284;3093;12054;;;
15/03/2020;Friuli Venezia Giulia;98;12;110;206;316;45;46;17;14;347;3407;;;
15/03/2020;Lazio;223;31;254;142;396;76;79;24;16;436;8345;;;
15/03/2020;Liguria;253;66;319;174;493;109;96;33;33;559;1973;;;
15/03/2020;Lombardia;5500;767;6267;3776;10043;984;1587;2011;1218;13272;40369;;;
15/03/2020;Marche;521;98;619;468;1087;224;234;0;46;1133;2946;;;
15/03/2020;Molise;3;4;7;10;17;0;0;0;0;17;248;;;
15/03/2020;Piemonte;726;171;897;133;1030;216;238;0;81;1111;4375;;;
15/03/2020;Puglia;116;6;122;90;212;56;64;2;16;230;2017;;;
15/03/2020;Sardegna;16;0;16;59;75;28;30;0;2;77;613;;;
15/03/2020;Sicilia;56;15;71;108;179;29;32;7;2;188;2452;;;
15/03/2020;Toscana;175;107;282;481;763;149;151;10;8;781;5132;;;
15/03/2020;P.A. Trento;73;19;92;275;367;168;172;5;6;378;1006;;;
15/03/2020;Umbria;25;13;38;101;139;36;36;3;1;143;965;;;
15/03/2020;Valle d'Aosta;10;3;13;43;56;15;15;0;1;57;230;;;
15/03/2020;Veneto;426;129;555;1434;1989;214;235;120;63;2172;32546;;;
16/03/2020;Abruzzo;71;37;108;57;165;37;39;7;4;176;1533;;;
16/03/2020;Basilicata;1;2;3;9;12;1;1;0;0;12;230;;;
16/03/2020;P.A. Bolzano;53;11;64;171;235;36;37;0;6;241;1740;;;
16/03/2020;Calabria;36;7;43;44;87;21;21;1;1;89;1030;;;
16/03/2020;Campania;103;22;125;238;363;67;67;28;9;400;2517;;;
16/03/2020;Emilia-Romagna;1362;197;1559;1529;3088;347;429;88;346;3522;13096;;;
16/03/2020;Friuli Venezia Giulia;96;19;115;231;346;30;39;18;22;386;4851;;;
16/03/2020;Lazio;267;31;298;174;472;76;87;32;19;523;9330;;;
16/03/2020;Liguria;255;73;328;247;575;82;108;42;50;667;2189;;;
16/03/2020;Lombardia;6171;823;6994;3867;10861;818;1377;2368;1420;14649;43565;;;
16/03/2020;Marche;528;110;638;547;1185;98;109;0;57;1242;3225;;;
16/03/2020;Molise;3;5;8;7;15;-2;4;5;1;21;253;;;
16/03/2020;Piemonte;1045;186;1231;174;1405;375;405;0;111;1516;5588;;;
16/03/2020;Puglia;116;6;122;90;212;0;0;2;16;230;2017;;nd-IT-0005;nd-EN-0005
16/03/2020;Sardegna;39;0;39;66;105;30;30;0;2;107;797;;;
16/03/2020;Sicilia;75;20;95;108;203;24;25;8;2;213;2653;;;
16/03/2020;Toscana;175;107;282;559;841;78;85;11;14;866;5910;;;
16/03/2020;P.A. Trento;73;19;92;275;367;0;0;5;6;378;1006;;nd-IT-0003;nd-EN-0003
16/03/2020;Umbria;30;15;45;114;159;20;21;4;1;164;1093;;;
16/03/2020;Valle d'Aosta;28;5;33;70;103;47;48;0;2;105;287;;;
16/03/2020;Veneto;498;156;654;1620;2274;285;301;130;69;2473;35052;;;
17/03/2020;Abruzzo;94;32;126;90;216;51;53;7;6;229;1688;;;
17/03/2020;Basilicata;5;2;7;13;20;8;8;0;0;20;262;;;
17/03/2020;P.A. Bolzano;71;11;82;200;282;47;50;1;8;291;2149;;;
17/03/2020;Calabria;45;10;55;57;112;25;25;1;1;114;1293;;;
17/03/2020;Campania;127;24;151;272;423;60;60;28;9;460;2685;;;
17/03/2020;Emilia-Romagna;1566;223;1789;1615;3404;316;409;134;393;3931;14510;;nd-IT-0008;nd-EN-0008
17/03/2020;Friuli Venezia Giulia;104;21;125;222;347;1;8;17;30;394;4958;;;
17/03/2020;Lazio;314;44;358;192;550;78;84;34;23;607;9436;;;
17/03/2020;Liguria;299;85;384;277;661;86;111;57;60;778;2509;;;
17/03/2020;Lombardia;6953;879;7832;4263;12095;1234;1571;2485;1640;16220;46449;;;
17/03/2020;Marche;599;109;708;594;1302;117;129;0;69;1371;3225;;;
17/03/2020;Molise;7;5;12;7;19;4;4;5;1;25;301;;;
17/03/2020;Piemonte;1378;206;1584;180;1764;359;381;0;133;1897;6543;;;
17/03/2020;Puglia;155;14;169;151;320;108;110;2;18;340;3077;;;
17/03/2020;Sardegna;36;4;40;75;115;10;10;0;2;117;1003;;;
17/03/2020;Sicilia;86;28;114;112;226;23;24;8;3;237;2916;;;
17/03/2020;Toscana;329;143;472;552;1024;183;187;12;17;1053;6727;;;
17/03/2020;P.A. Trento;107;22;129;239;368;1;7;10;7;385;1727;;;
17/03/2020;Umbria;36;21;57;135;192;33;33;4;1;197;1323;;;
17/03/2020;Valle d'Aosta;35;6;41;93;134;31;31;0;2;136;398;;;
17/03/2020;Veneto;548;171;719;1769;2488;214;231;136;80;2704;35478;;;
18/03/2020;Abruzzo;99;41;140;109;249;33;34;7;7;263;2054;;;
18/03/2020;Basilicata;9;2;11;16;27;7;7;0;0;27;262;;;
18/03/2020;P.A. Bolzano;79;18;97;269;366;84;85;1;9;376;2844;;;
18/03/2020;Calabria;45;11;56;70;126;14;15;2;1;129;1668;;;
18/03/2020;Campania;127;24;151;272;423;0;0;28;9;460;2685;;nd-IT-0013;nd-EN-0013
18/03/2020;Emilia-Romagna;1784;247;2031;1884;3915;511;594;152;458;4525;15461;;nd-IT-0011;nd-EN-0011
18/03/2020;Friuli Venezia Giulia;128;27;155;261;416;69;68;15;31;462;4958;;;
18/03/2020;Lazio;374;44;418;232;650;100;117;42;32;724;11145;;;
18/03/2020;Liguria;401;100;501;243;744;83;109;70;73;887;2912;;;
18/03/2020;Lombardia;7285;924;8209;4057;12266;171;1493;3488;1959;17713;48983;;;
18/03/2020;Marche;638;119;757;719;1476;174;197;0;92;1568;4109;;;
18/03/2020;Molise;7;6;13;8;21;2;3;6;1;28;361;;;
18/03/2020;Piemonte;1780;227;2007;180;2187;423;444;0;154;2341;7516;;;
18/03/2020;Puglia;156;30;186;176;362;42;43;2;19;383;3433;;;
18/03/2020;Sardegna;42;7;49;83;132;17;17;0;2;134;1135;;;
18/03/2020;Sicilia;100;29;129;138;267;41;45;12;3;282;3294;;;
18/03/2020;Toscana;427;160;587;704;1291;267;277;17;22;1330;7606;;;
18/03/2020;P.A. Trento;141;22;163;273;436;68;70;12;7;455;2187;;;
18/03/2020;Umbria;54;21;75;166;241;49;50;4;2;247;1601;;;
18/03/2020;Valle d'Aosta;41;3;44;118;162;28;29;0;3;165;486;;;
18/03/2020;Veneto;646;195;841;2112;2953;465;510;167;94;3214;40841;;;
19/03/2020;Abruzzo;181;47;228;138;366;117;122;8;11;385;2409;;;
19/03/2020;Basilicata;8;5;13;24;37;10;10;0;0;37;353;;;
19/03/2020;P.A. Bolzano;87;18;105;316;421;55;60;1;14;436;3568;;;
19/03/2020;Calabria;60;13;73;91;164;38;40;2;3;169;2342;;;
19/03/2020;Campania;213;36;249;356;605;182;192;30;17;652;3544;;;
19/03/2020;Emilia-Romagna;1900;260;2160;2346;4506;591;689;177;531;5214;18344;;;
19/03/2020;Friuli Venezia Giulia;134;29;163;359;522;106;137;41;36;599;4052;;;
19/03/2020;Lazio;426;45;471;270;741;91;99;44;38;823;11145;;;
19/03/2020;Liguria;491;112;603;280;883;139;172;85;91;1059;3348;;;
19/03/2020;Lombardia;7387;1006;8393;5545;13938;1672;2171;3778;2168;19884;52244;;;
19/03/2020;Marche;656;141;797;825;1622;146;169;0;115;1737;4512;;;
19/03/2020;Molise;19;6;25;13;38;17;18;6;2;46;426;;;
19/03/2020;Piemonte;2279;257;2536;218;2754;567;591;3;175;2932;8853;;;
19/03/2020;Puglia;173;31;204;245;449;87;95;4;25;478;4046;;;
19/03/2020;Sardegna;43;9;52;152;204;72;72;0;2;206;1334;;;
19/03/2020;Sicilia;143;36;179;142;321;54;58;15;4;340;3961;;;
19/03/2020;Toscana;501;178;679;743;1422;131;152;22;38;1482;8873;;;
19/03/2020;P.A. Trento;169;30;199;292;491;55;68;20;12;523;2203;;;
19/03/2020;Umbria;69;21;90;238;328;87;87;4;2;334;1954;;;
19/03/2020;Valle d'Aosta;47;9;56;153;209;47;50;0;6;215;608;;;
19/03/2020;Veneto;771;209;980;2189;3169;216;270;200;115;3484;44658;;;
20/03/2020;Abruzzo;190;48;238;184;422;56;64;10;17;449;2695;;;
20/03/2020;Basilicata;8;5;13;39;52;15;15;0;0;52;443;;;
20/03/2020;P.A. Bolzano;99;24;123;407;530;109;112;1;17;548;4433;;;
20/03/2020;Calabria;71;16;87;114;201;37;38;2;4;207;2690;;;
20/03/2020;Campania;130;41;171;531;702;97;97;30;17;749;3845;;;
20/03/2020;Emilia-Romagna;2083;267;2350;2739;5089;583;754;239;640;5968;20753;;;
20/03/2020;Friuli Venezia Giulia;143;32;175;380;555;33;57;63;38;656;4964;;;
20/03/2020;Lazio;537;47;584;328;912;171;185;53;43;1008;13889;;;
20/03/2020;Liguria;573;121;694;307;1001;118;162;101;119;1221;3794;;;
20/03/2020;Lombardia;7735;1050;8785;6635;15420;1482;2380;4295;2549;22264;57174;;;
20/03/2020;Marche;704;138;842;1002;1844;222;244;0;137;1981;5170;;;
20/03/2020;Molise;20;6;26;13;39;1;4;6;5;50;426;;;
20/03/2020;Piemonte;1541;280;1821;1423;3244;490;529;8;209;3461;9975;;;
20/03/2020;Puglia;191;31;222;329;551;102;103;4;26;581;4789;;;
20/03/2020;Sardegna;56;15;71;217;288;84;87;3;2;293;1912;;;
20/03/2020;Sicilia;168;42;210;169;379;58;68;25;4;408;4468;;;
20/03/2020;Toscana;601;189;790;923;1713;291;311;33;47;1793;10405;;;
20/03/2020;P.A. Trento;198;34;232;368;600;109;119;29;13;642;2656;;;
20/03/2020;Umbria;75;24;99;285;384;56;61;4;7;395;2303;;;
20/03/2020;Valle d'Aosta;54;9;63;194;257;48;49;0;7;264;814;;;
20/03/2020;Veneto;843;236;1079;2598;3677;508;547;223;131;4031;49288;;;
21/03/2020;Abruzzo;185;44;229;265;494;72;80;13;22;529;3035;;;
21/03/2020;Basilicata;12;7;19;47;66;14;14;0;0;66;522;;;
21/03/2020;P.A. Bolzano;127;30;157;443;600;70;73;1;20;621;5179;;;
21/03/2020;Calabria;73;16;89;136;225;24;28;5;5;235;3050;;;
21/03/2020;Campania;233;87;320;473;793;91;95;29;22;844;4448;;;
21/03/2020;Emilia-Romagna;2267;265;2532;3129;5661;572;737;329;715;6705;24620;;;
21/03/2020;Friuli Venezia Giulia;152;37;189;477;666;111;134;82;42;790;5955;;;
21/03/2020;Lazio;591;70;661;425;1086;174;182;54;50;1190;13889;;;
21/03/2020;Liguria;598;129;727;432;1159;158;215;125;152;1436;4304;;;
21/03/2020;Lombardia;8258;1093;9351;8019;17370;1950;3251;5050;3095;25515;66730;;;
21/03/2020;Marche;742;141;883;1114;1997;153;172;2;154;2153;5740;;;
21/03/2020;Molise;21;6;27;20;47;8;11;7;7;61;449;;;
21/03/2020;Piemonte;1976;301;2277;1229;3506;262;291;8;238;3752;10701;;;
21/03/2020;Puglia;209;33;242;400;642;91;94;4;29;675;5617;;;
21/03/2020;Sardegna;65;16;81;240;321;33;37;5;4;330;2297;;;
21/03/2020;Sicilia;206;48;254;204;458;79;82;26;6;490;4883;;;
21/03/2020;Toscana;664;202;866;1039;1905;192;219;35;72;2012;11909;;;
21/03/2020;P.A. Trento;233;39;272;448;720;120;140;34;28;782;2656;;;
21/03/2020;Umbria;92;29;121;326;447;63;67;5;10;462;2712;;;
21/03/2020;Valle d'Aosta;62;15;77;227;304;47;49;1;8;313;884;;;
21/03/2020;Veneto;942;249;1191;3023;4214;537;586;257;146;4617;53642;;;
22/03/2020;Abruzzo;218;49;267;272;539;45;58;15;33;587;3375;;;
22/03/2020;Basilicata;13;10;23;58;81;15;15;0;0;81;643;;;
22/03/2020;P.A. Bolzano;146;32;178;470;648;48;57;7;23;678;5718;;;
22/03/2020;Calabria;77;17;94;166;260;35;38;5;8;273;3666;;;
22/03/2020;Campania;243;99;342;524;866;73;92;41;29;936;4943;;;
22/03/2020;Emilia-Romagna;2429;269;2698;3692;6390;729;850;349;816;7555;28022;;;
22/03/2020;Friuli Venezia Giulia;163;47;210;528;738;72;84;89;47;874;6761;;;
22/03/2020;Lazio;671;79;750;522;1272;186;193;58;53;1383;17845;;;
22/03/2020;Liguria;736;132;868;483;1351;192;229;143;171;1665;4995;;;
22/03/2020;Lombardia;9439;1142;10581;7304;17885;515;1691;5865;3456;27206;70598;;;
22/03/2020;Marche;816;138;954;1277;2231;234;268;6;184;2421;6391;;;
22/03/2020;Molise;24;7;31;21;52;5;5;7;7;66;532;;;
22/03/2020;Piemonte;2118;308;2426;1701;4127;621;668;10;283;4420;12701;;;
22/03/2020;Puglia;252;37;289;459;748;106;111;7;31;786;6160;;;
22/03/2020;Sardegna;67;16;83;244;327;6;9;5;7;339;2402;;;
22/03/2020;Sicilia;220;55;275;321;596;138;140;26;8;630;5580;;;
22/03/2020;Toscana;706;215;921;1223;2144;239;265;42;91;2277;13264;;;
22/03/2020;P.A. Trento;235;46;281;604;885;165;172;34;35;954;3050;;;
22/03/2020;Umbria;97;35;132;368;500;53;59;5;16;521;3135;;;
22/03/2020;Valle d'Aosta;63;21;84;270;354;50;51;1;9;364;950;;;
22/03/2020;Veneto;1113;255;1368;3276;4644;430;505;309;169;5122;57671;;;
23/03/2020;Abruzzo;228;52;280;325;605;66;76;20;38;663;3674;;;
23/03/2020;Basilicata;15;12;27;62;89;8;9;0;1;90;696;;;
23/03/2020;P.A. Bolzano;145;33;178;510;688;40;46;7;29;724;6084;;;
23/03/2020;Calabria;82;20;102;178;280;20;19;5;7;292;4073;;;
23/03/2020;Campania;266;110;376;553;929;63;90;48;49;1026;5813;;;
23/03/2020;Emilia-Romagna;2846;276;3122;4098;7220;830;980;423;892;8535;31200;;;
23/03/2020;Friuli Venezia Giulia;185;41;226;545;771;33;56;105;54;930;7424;;;
23/03/2020;Lazio;718;96;814;600;1414;142;157;63;63;1540;18371;;;
23/03/2020;Liguria;761;133;894;659;1553;202;259;159;212;1924;5538;;;
23/03/2020;Lombardia;9266;1183;10449;8461;18910;1025;1555;6075;3776;28761;73242;;;
23/03/2020;Marche;882;148;1030;1328;2358;127;148;8;203;2569;6782;;;
23/03/2020;Molise;25;7;32;18;50;-2;1;10;7;67;532;;;
23/03/2020;Piemonte;2194;343;2537;1992;4529;402;441;17;315;4861;13560;;;
23/03/2020;Puglia;285;45;330;532;862;114;120;7;37;906;6761;;;
23/03/2020;Sardegna;76;18;94;249;343;16;20;5;11;359;2568;;;
23/03/2020;Sicilia;250;60;310;371;681;85;91;27;13;721;6375;;;
23/03/2020;Toscana;838;238;1076;1225;2301;157;184;51;109;2461;13851;;;
23/03/2020;P.A. Trento;249;46;295;619;914;29;69;68;41;1023;3150;;;
23/03/2020;Umbria;106;42;148;408;556;56;56;5;16;577;3561;;;
23/03/2020;Valle d'Aosta;69;20;89;290;379;25;29;2;12;393;1098;;;
23/03/2020;Veneto;1206;281;1487;3499;4986;342;383;327;192;5505;61115;;;
24/03/2020;Abruzzo;234;57;291;331;622;17;26;21;46;689;4294;;;
24/03/2020;Basilicata;14;12;26;65;91;2;2;0;1;92;744;;;
24/03/2020;P.A. Bolzano;166;38;204;495;699;11;57;44;38;781;6509;;;
24/03/2020;Calabria;88;21;109;195;304;24;27;5;10;319;4486;;;
24/03/2020;Campania;345;181;526;466;992;63;75;53;56;1101;6297;;;
24/03/2020;Emilia-Romagna;2974;291;3265;4446;7711;491;719;558;985;9254;33527;;;
24/03/2020;Friuli Venezia Giulia;195;49;244;604;848;77;62;80;64;992;8526;;;
24/03/2020;Lazio;747;94;841;704;1545;131;188;103;80;1728;18371;;;
24/03/2020;Liguria;803;147;950;742;1692;139;192;193;231;2116;5992;;;
24/03/2020;Lombardia;9711;1194;10905;8963;19868;958;1942;6657;4178;30703;76695;;;
24/03/2020;Marche;862;149;1011;1486;2497;139;167;8;231;2736;7229;;;
24/03/2020;Molise;27;7;34;21;55;5;6;10;8;73;572;;;
24/03/2020;Piemonte;2404;360;2764;2360;5124;595;654;17;374;5515;15469;;;
24/03/2020;Puglia;317;57;374;566;940;78;99;21;44;1005;7345;;;
24/03/2020;Sardegna;80;19;99;296;395;52;62;11;15;421;2859;;;
24/03/2020;Sicilia;250;60;310;489;799;118;125;27;20;846;7170;;;
24/03/2020;Toscana;918;244;1162;1357;2519;218;238;51;129;2699;15701;;;
24/03/2020;P.A. Trento;308;49;357;618;975;61;87;79;56;1110;3712;;;
24/03/2020;Umbria;105;43;148;476;624;68;71;5;19;648;4108;;;
24/03/2020;Valle d'Aosta;71;20;91;288;379;0;7;2;19;400;1180;;;
24/03/2020;Veneto;1318;304;1622;3729;5351;365;443;381;216;5948;66178;;;
25/03/2020;Abruzzo;248;59;307;431;738;116;124;23;52;813;4982;;;
25/03/2020;Basilicata;20;14;34;78;112;21;21;0;1;113;857;;;
25/03/2020;P.A. Bolzano;190;40;230;518;748;49;77;67;43;858;6649;;;
25/03/2020;Calabria;93;23;116;217;333;29;32;7;11;351;5058;;;
25/03/2020;Campania;318;123;441;631;1072;80;98;53;74;1199;6972;;;
25/03/2020;Emilia-Romagna;3180;294;3474;4782;8256;545;800;721;1077;10054;38045;;;
25/03/2020;Friuli Venezia Giulia;200;52;252;659;911;63;147;158;70;1139;9494;;;
25/03/2020;Lazio;805;101;906;769;1675;130;173;131;95;1901;20669;;;
25/03/2020;Liguria;927;147;1074;752;1826;134;189;225;254;2305;6602;;;
25/03/2020;Lombardia;10026;1236;11262;9329;20591;723;1643;7281;4474;32346;81666;;;
25/03/2020;Marche;938;148;1086;1553;2639;142;198;8;287;2934;7896;;;
25/03/2020;Molise;26;7;33;20;53;-2;0;12;8;73;580;;;
25/03/2020;Piemonte;2544;381;2925;2631;5556;432;509;19;449;6024;16655;;;
25/03/2020;Puglia;349;64;413;610;1023;83;88;22;48;1093;8223;;;
25/03/2020;Sardegna;82;19;101;311;412;17;21;12;18;442;3019;;;
25/03/2020;Sicilia;259;80;339;597;936;137;148;33;25;994;8312;;;
25/03/2020;Toscana;999;251;1250;1526;2776;257;273;54;142;2972;17868;;;
25/03/2020;P.A. Trento;308;65;373;685;1058;83;112;90;74;1222;4114;;;
25/03/2020;Umbria;123;44;167;519;686;62;62;5;19;710;4707;;;
25/03/2020;Valle d'Aosta;70;25;95;280;375;-4;1;2;24;401;1200;;;
25/03/2020;Veneto;1407;316;1723;4022;5745;394;494;439;258;6442;70877;;;
26/03/2020;Abruzzo;280;64;344;516;860;122;133;23;63;946;5488;;;
26/03/2020;Basilicata;22;16;38;95;133;21;21;0;1;134;1046;;;
26/03/2020;P.A. Bolzano;223;43;266;525;791;43;48;67;48;906;7744;;;
26/03/2020;Calabria;101;23;124;248;372;39;42;7;14;393;5933;;;
26/03/2020;Campania;448;114;562;607;1169;97;111;58;83;1310;8346;;;
26/03/2020;Emilia-Romagna;3354;301;3655;5195;8850;594;762;792;1174;10816;42395;;;
26/03/2020;Friuli Venezia Giulia;212;54;266;688;954;43;84;197;72;1223;10721;;;
26/03/2020;Lazio;878;113;991;844;1835;160;195;155;106;2096;22771;;;
26/03/2020;Liguria;998;154;1152;875;2027;201;262;260;280;2567;7304;;;
26/03/2020;Lombardia;10681;1263;11944;10245;22189;1598;2543;7839;4861;34889;87713;;;
26/03/2020;Marche;977;166;1143;1652;2795;156;180;9;310;3114;8623;;;
26/03/2020;Molise;27;8;35;46;81;28;30;14;8;103;670;;;
26/03/2020;Piemonte;2633;408;3041;2909;5950;394;510;135;449;6534;18054;;pd-IT-0006;pd-EN-0006
26/03/2020;Puglia;480;76;556;539;1095;72;89;22;65;1182;9191;;;
26/03/2020;Sardegna;92;20;112;350;462;50;52;13;19;494;3461;;;
26/03/2020;Sicilia;346;68;414;681;1095;159;170;36;33;1164;9658;;;
26/03/2020;Toscana;1037;259;1296;1677;2973;197;254;95;158;3226;20952;;;
26/03/2020;P.A. Trento;300;66;366;728;1094;36;75;117;86;1297;4600;;;
26/03/2020;Umbria;144;46;190;580;770;84;92;12;20;802;5428;;;
26/03/2020;Valle d'Aosta;73;24;97;281;378;3;7;2;28;408;1203;;;
26/03/2020;Veneto;1447;326;1773;4367;6140;395;493;508;287;6935;79759;;;
27/03/2020;Abruzzo;289;71;360;565;925;65;71;24;68;1017;6109;;;
27/03/2020;Basilicata;22;15;37;110;147;14;17;1;3;151;1254;;;
27/03/2020;P.A. Bolzano;249;45;294;539;833;42;97;110;60;1003;8520;;;
27/03/2020;Calabria;103;22;125;344;469;97;101;7;18;494;6901;;;
27/03/2020;Campania;456;113;569;723;1292;123;144;64;98;1454;9613;;;
27/03/2020;Emilia-Romagna;3461;308;3769;5592;9361;511;772;960;1267;11588;47798;;;
27/03/2020;Friuli Venezia Giulia;222;57;279;748;1027;73;94;214;76;1317;11841;;;
27/03/2020;Lazio;992;126;1118;895;2013;178;199;164;118;2295;24106;;;
27/03/2020;Liguria;1023;157;1180;880;2060;33;129;305;331;2696;7804;;;
27/03/2020;Lombardia;11137;1292;12429;11466;23895;1706;2409;8001;5402;37298;95860;;;
27/03/2020;Marche;979;162;1141;1709;2850;55;82;10;336;3196;9060;;;
27/03/2020;Molise;26;9;35;51;86;5;6;14;9;109;710;;;
27/03/2020;Piemonte;2852;431;3283;3064;6347;397;558;176;569;7092;19705;;;
27/03/2020;Puglia;530;82;612;624;1236;141;152;29;69;1334;10233;;;
27/03/2020;Sardegna;93;19;112;384;496;34;36;13;21;530;3801;;;
27/03/2020;Sicilia;425;75;500;658;1158;63;86;53;39;1250;11079;;;
27/03/2020;Toscana;1053;274;1327;1843;3170;197;224;103;177;3450;23746;;;
27/03/2020;P.A. Trento;341;66;407;757;1164;70;94;125;102;1391;4923;;;
27/03/2020;Umbria;149;46;195;629;824;54;82;39;21;884;6137;;;
27/03/2020;Valle d'Aosta;91;24;115;298;413;35;44;2;37;452;1252;;;
27/03/2020;Veneto;1536;338;1874;4774;6648;508;562;536;313;7497;83627;;;
28/03/2020;Abruzzo;311;70;381;646;1027;102;116;30;76;1133;7003;;;
28/03/2020;Basilicata;26;19;45;133;178;31;31;1;3;182;1421;;;
28/03/2020;P.A. Bolzano;225;51;276;653;929;96;106;116;64;1109;9168;;;
28/03/2020;Calabria;107;22;129;394;523;54;61;11;21;555;7760;;;
28/03/2020;Campania;463;132;595;812;1407;115;138;76;109;1592;10616;;;
28/03/2020;Emilia-Romagna;3695;316;4011;5953;9964;603;795;1075;1344;12383;52991;;;
28/03/2020;Friuli Venezia Giulia;223;59;282;838;1120;93;119;229;87;1436;12723;;;
28/03/2020;Lazio;985;133;1118;1063;2181;168;210;200;124;2505;27179;;;
28/03/2020;Liguria;1031;167;1198;888;2086;26;126;378;358;2822;8177;;;
28/03/2020;Lombardia;11152;1319;12471;12038;24509;614;2117;8962;5944;39415;102503;;;
28/03/2020;Marche;987;166;1153;1846;2999;149;177;10;364;3373;9884;;;
28/03/2020;Molise;26;9;35;63;98;12;14;16;9;123;807;;;
28/03/2020;Piemonte;3094;439;3533;3318;6851;504;579;203;617;7671;21511;;;
28/03/2020;Puglia;563;98;661;697;1358;122;124;29;71;1458;11500;;;
28/03/2020;Sardegna;95;22;117;452;569;73;94;29;26;624;4225;;;
28/03/2020;Sicilia;441;71;512;730;1242;84;109;60;57;1359;13096;;;
28/03/2020;Toscana;1093;277;1370;2141;3511;341;367;108;198;3817;25613;;;
28/03/2020;P.A. Trento;351;72;423;811;1234;70;114;151;120;1505;5561;;;
28/03/2020;Umbria;159;44;203;695;898;74;85;43;28;969;7028;;;
28/03/2020;Valle d'Aosta;90;26;116;352;468;55;59;2;41;511;1380;;;
28/03/2020;Veneto;1559;344;1903;5010;6913;265;433;655;362;7930;89380;;;
29/03/2020;Abruzzo;329;68;397;772;1169;142;160;36;88;1293;7730;;;
29/03/2020;Basilicata;32;18;50;147;197;19;20;1;4;202;1585;;;
29/03/2020;P.A. Bolzano;234;56;290;744;1034;105;105;116;64;1214;10137;;;
29/03/2020;Calabria;124;19;143;434;577;54;59;12;25;614;8485;;;
29/03/2020;Campania;476;135;611;945;1556;149;167;86;117;1759;11805;;;
29/03/2020;Emilia-Romagna;3769;333;4102;6433;10535;571;736;1141;1443;13119;52991;;pd-IT-0008;pd-EN-0008
29/03/2020;Friuli Venezia Giulia;236;60;296;845;1141;21;44;241;98;1480;13397;;;
29/03/2020;Lazio;1062;133;1195;1167;2362;181;201;208;136;2706;27744;;;
29/03/2020;Liguria;1077;166;1243;1036;2279;193;254;420;377;3076;9100;;;
29/03/2020;Lombardia;11613;1328;12941;12451;25392;883;1592;9255;6360;41007;107398;;;
29/03/2020;Marche;1000;168;1168;1992;3160;161;185;12;386;3558;10431;;;
29/03/2020;Molise;25;9;34;66;100;2;4;18;9;127;918;;;
29/03/2020;Piemonte;2985;443;3428;3840;7268;417;535;254;684;8206;24058;;;
29/03/2020;Puglia;559;99;658;774;1432;74;91;31;86;1549;12361;;;
29/03/2020;Sardegna;105;23;128;454;582;13;14;29;27;638;4598;;;
29/03/2020;Sicilia;451;71;522;808;1330;88;101;65;65;1460;13814;;;
29/03/2020;Toscana;1111;275;1386;2400;3786;275;305;121;215;4122;27579;;;
29/03/2020;P.A. Trento;356;75;431;862;1293;59;89;172;129;1594;5950;;;
29/03/2020;Umbria;166;46;212;685;897;-1;54;95;31;1023;7685;;;
29/03/2020;Valle d'Aosta;90;26;116;423;539;71;73;2;43;584;1480;;;
29/03/2020;Veneto;1586;355;1941;5310;7251;338;428;715;392;8358;94784;;;
30/03/2020;Abruzzo;322;69;391;778;1169;0;52;74;102;1345;7948;;;
30/03/2020;Basilicata;36;18;54;154;208;11;12;1;5;214;1833;;;
30/03/2020;P.A. Bolzano;231;62;293;805;1098;64;111;153;74;1325;10640;;;
30/03/2020;Calabria;130;18;148;454;602;25;33;14;31;647;9013;;;
30/03/2020;Campania;468;126;594;1145;1739;183;193;88;125;1952;12969;;;
30/03/2020;Emilia-Romagna;3779;351;4130;6636;10766;231;412;1227;1538;13531;50990;;;
30/03/2020;Friuli Venezia Giulia;229;60;289;820;1109;-32;21;285;107;1501;14003;;;
30/03/2020;Lazio;1079;154;1233;1264;2497;135;208;267;150;2914;32846;;;
30/03/2020;Liguria;1142;175;1317;1066;2383;104;141;437;397;3217;9677;;;
30/03/2020;Lombardia;11815;1330;13145;11861;25006;-386;1154;10337;6818;42161;111057;;;
30/03/2020;Marche;998;167;1165;2086;3251;91;126;16;417;3684;10979;;;
30/03/2020;Molise;27;8;35;72;107;7;7;18;9;134;955;;;
30/03/2020;Piemonte;2985;452;3437;4218;7655;387;506;308;749;8712;25478;;;
30/03/2020;Puglia;590;106;696;889;1585;153;163;36;91;1712;13117;;;
30/03/2020;Sardegna;113;24;137;485;622;40;44;32;28;682;4993;;;
30/03/2020;Sicilia;484;75;559;849;1408;78;95;71;76;1555;14758;;;
30/03/2020;Toscana;1116;279;1395;2655;4050;264;290;131;231;4412;30099;;;
30/03/2020;P.A. Trento;353;78;431;926;1357;64;88;178;147;1682;6377;;;
30/03/2020;Umbria;173;47;220;614;834;-63;28;184;33;1051;8150;;;
30/03/2020;Valle d'Aosta;92;26;118;400;518;-21;0;16;50;584;1536;;;
30/03/2020;Veneto;1633;356;1989;5575;7564;313;366;747;413;8724;99941;;;
31/03/2020;Abruzzo;335;73;408;783;1191;22;56;95;115;1401;8758;;;
31/03/2020;Basilicata;37;17;54;162;216;8;12;3;7;226;2043;;;
31/03/2020;P.A. Bolzano;249;62;311;831;1142;44;46;153;76;1371;11275;;;
31/03/2020;Calabria;132;17;149;457;606;4;12;17;36;659;9327;;;
31/03/2020;Campania;501;133;634;1237;1871;132;140;88;133;2092;14403;;;
31/03/2020;Emilia-Romagna;3765;353;4118;6835;10953;187;543;1477;1644;14074;54532;;;
31/03/2020;Friuli Venezia Giulia;215;60;275;885;1160;51;92;320;113;1593;14899;;;
31/03/2020;Lazio;1127;173;1300;1342;2642;145;181;291;162;3095;34677;;;
31/03/2020;Liguria;1153;179;1332;1176;2508;125;199;480;428;3416;10376;;;
31/03/2020;Lombardia;11883;1324;13207;11917;25124;118;1047;10885;7199;43208;114640;;;
31/03/2020;Marche;946;169;1115;2237;3352;101;141;21;452;3825;11724;;;
31/03/2020;Molise;29;8;37;80;117;10;10;18;9;144;1049;;;
31/03/2020;Piemonte;3174;452;3626;4456;8082;427;589;365;854;9301;27658;;;
31/03/2020;Puglia;609;105;714;940;1654;69;91;39;110;1803;14073;;;
31/03/2020;Sardegna;113;28;141;516;657;35;40;34;31;722;5257;;;
31/03/2020;Sicilia;503;72;575;917;1492;84;92;74;81;1647;15634;;;
31/03/2020;Toscana;1120;293;1413;2813;4226;176;196;138;244;4608;33165;;;
31/03/2020;P.A. Trento;354;80;434;955;1389;32;64;193;164;1746;6973;;;
31/03/2020;Umbria;176;43;219;632;851;17;27;190;37;1078;8685;;;
31/03/2020;Valle d'Aosta;91;26;117;435;552;34;44;20;56;628;1582;;;
31/03/2020;Veneto;1680;356;2036;5814;7850;286;431;828;477;9155;106238;;;
